%YAML 1.1
%TAG !u! tag:unity3d.com,2011:
--- !u!74 &7400000
AnimationClip:
  m_ObjectHideFlags: 0
  m_PrefabParentObject: {fileID: 0}
  m_PrefabInternal: {fileID: 0}
  m_Name: Standing Idle
  serializedVersion: 6
  m_Legacy: 0
  m_Compressed: 0
  m_UseHighQualityCurve: 1
  m_RotationCurves:
  - curve:
      serializedVersion: 2
      m_Curve:
      - serializedVersion: 2
        time: 0
        value: {x: 0.05100332, y: 0.42228976, z: -0.046622403, w: 0.9038232}
        inSlope: {x: -0.03284756, y: -0.0015601515, z: 0.022161862, w: 0.0036960838}
        outSlope: {x: -0.03284756, y: -0.0015601515, z: 0.022161862, w: 0.0036960838}
        tangentMode: 0
      - serializedVersion: 2
        time: 0.4666667
        value: {x: 0.05483156, y: 0.44886553, z: -0.050755728, w: 0.89047015}
        inSlope: {x: 0.0028464925, y: 0.029427424, z: -0.016631994, w: -0.015952893}
        outSlope: {x: 0.0028464925, y: 0.029427424, z: -0.016631994, w: -0.015952893}
        tangentMode: 0
      - serializedVersion: 2
        time: 1.3333334
        value: {x: 0.04250206, y: 0.42333502, z: -0.053405073, w: 0.9033986}
        inSlope: {x: -0.00015924638, y: -0.010423457, z: 0.008313225, w: 0.005371544}
        outSlope: {x: -0.00015924638, y: -0.010423457, z: 0.008313225, w: 0.005371544}
        tangentMode: 0
      - serializedVersion: 2
        time: 1.8333334
        value: {x: 0.051003315, y: 0.42228985, z: -0.046622414, w: 0.90382314}
        inSlope: {x: 0.00020183642, y: -0.024386667, z: 0.012152988, w: 0.012025248}
        outSlope: {x: 0.00020183642, y: -0.024386667, z: 0.012152988, w: 0.012025248}
        tangentMode: 0
      m_PreInfinity: 2
      m_PostInfinity: 2
      m_RotationOrder: 4
    path: mixamorig:Hips
  - curve:
      serializedVersion: 2
      m_Curve:
      - serializedVersion: 2
        time: 0
        value: {x: 0.09826064, y: -0.024963249, z: 0.015528214, w: 0.99472636}
        inSlope: {x: 0.01357153, y: -0.0060387696, z: 0.000058086585, w: -0.0014948844}
        outSlope: {x: 0.01357153, y: -0.0060387696, z: 0.000058086585, w: -0.0014948844}
        tangentMode: 0
      - serializedVersion: 2
        time: 0.8000001
        value: {x: 0.07727357, y: -0.025100246, z: 0.01663628, w: 0.9965551}
        inSlope: {x: -0.015358551, y: -0.0008757975, z: -0.003905241, w: 0.0012347102}
        outSlope: {x: -0.015358551, y: -0.0008757975, z: -0.003905241, w: 0.0012347102}
        tangentMode: 0
      - serializedVersion: 2
        time: 1.8000001
        value: {x: 0.098241754, y: -0.024802225, z: 0.015552079, w: 0.9947319}
        inSlope: {x: 0.0020209346, y: -0.0035845523, z: 0.00002430752, w: -0.00028967886}
        outSlope: {x: 0.0020209346, y: -0.0035845523, z: 0.00002430752, w: -0.00028967886}
        tangentMode: 0
      - serializedVersion: 2
        time: 1.8333334
        value: {x: 0.09826059, y: -0.02496305, z: 0.015528285, w: 0.99472636}
        inSlope: {x: 0.00056505256, y: -0.00482474, z: -0.0007138315, w: -0.00016629712}
        outSlope: {x: 0.00056505256, y: -0.00482474, z: -0.0007138315, w: -0.00016629712}
        tangentMode: 0
      m_PreInfinity: 2
      m_PostInfinity: 2
      m_RotationOrder: 4
    path: mixamorig:Hips/mixamorig:Spine
  - curve:
      serializedVersion: 2
      m_Curve:
      - serializedVersion: 2
        time: 0
        value: {x: 0.051301032, y: -0.0502244, z: 0.035017565, w: 0.99680465}
        inSlope: {x: 0.0224312, y: -0.006966702, z: 0.0014078243, w: -0.0015646218}
        outSlope: {x: 0.0224312, y: -0.006966702, z: 0.0014078243, w: -0.0015646218}
        tangentMode: 0
      - serializedVersion: 2
        time: 0.5666667
        value: {x: 0.020789472, y: -0.048379105, z: 0.038902953, w: 0.99785465}
        inSlope: {x: -0.062557876, y: -0.0047917115, z: -0.004968623, w: 0.0012481213}
        outSlope: {x: -0.062557876, y: -0.0047917115, z: -0.004968623, w: 0.0012481213}
        tangentMode: 0
      - serializedVersion: 2
        time: 1.1666667
        value: {x: 0.022546532, y: -0.048737448, z: 0.035716116, w: 0.9979182}
        inSlope: {x: 0.08449651, y: -0.002386833, z: -0.004792777, w: -0.0018444676}
        outSlope: {x: 0.08449651, y: -0.002386833, z: -0.004792777, w: -0.0018444676}
        tangentMode: 0
      - serializedVersion: 2
        time: 1.8333334
        value: {x: 0.051301055, y: -0.050224293, z: 0.03501753, w: 0.99680465}
        inSlope: {x: 0.010349761, y: -0.0075475196, z: 0.006831928, w: -0.0011497746}
        outSlope: {x: 0.010349761, y: -0.0075475196, z: 0.006831928, w: -0.0011497746}
        tangentMode: 0
      m_PreInfinity: 2
      m_PostInfinity: 2
      m_RotationOrder: 4
    path: mixamorig:Hips/mixamorig:Spine/mixamorig:Spine1
  - curve:
      serializedVersion: 2
      m_Curve:
      - serializedVersion: 2
        time: 0
        value: {x: -0.05184937, y: -0.053581946, z: 0.029626127, w: 0.9967763}
        inSlope: {x: 0.022632925, y: -0.0069563086, z: 0.0004513934, w: 0.0007796287}
        outSlope: {x: 0.022632925, y: -0.0069563086, z: 0.0004513934, w: 0.0007796287}
        tangentMode: 0
      - serializedVersion: 2
        time: 0.5666667
        value: {x: -0.0823512, y: -0.052163336, z: 0.03371101, w: 0.9946662}
        inSlope: {x: -0.062922284, y: -0.0038298606, z: -0.0057392553, w: -0.0052320966}
        outSlope: {x: -0.062922284, y: -0.0038298606, z: -0.0057392553, w: -0.0052320966}
        tangentMode: 0
      - serializedVersion: 2
        time: 1.1666667
        value: {x: -0.08065693, y: -0.052161653, z: 0.030718863, w: 0.994902}
        inSlope: {x: 0.08350541, y: -0.0023333563, z: -0.0012386788, w: 0.006693906}
        outSlope: {x: 0.08350541, y: -0.0023333563, z: -0.0012386788, w: 0.006693906}
        tangentMode: 0
      - serializedVersion: 2
        time: 1.8333334
        value: {x: -0.05184933, y: -0.053581923, z: 0.029626118, w: 0.9967763}
        inSlope: {x: 0.011272553, y: -0.00757803, z: 0.0045430516, w: 0.00004827981}
        outSlope: {x: 0.011272553, y: -0.00757803, z: 0.0045430516, w: 0.00004827981}
        tangentMode: 0
      m_PreInfinity: 2
      m_PostInfinity: 2
      m_RotationOrder: 4
    path: mixamorig:Hips/mixamorig:Spine/mixamorig:Spine1/mixamorig:Spine2
  - curve:
      serializedVersion: 2
      m_Curve:
      - serializedVersion: 2
        time: 0
        value: {x: 0.016860683, y: -0.08164727, z: 0.00091188453, w: 0.99651825}
        inSlope: {x: 0.017161723, y: -0.0035867838, z: 0.025360102, w: -0.0006240606}
        outSlope: {x: 0.017161723, y: -0.0035867838, z: 0.025360102, w: -0.0006240606}
        tangentMode: 0
      - serializedVersion: 2
        time: 0.20000002
        value: {x: 0.05608845, y: -0.09275189, z: 0.0115774125, w: 0.99404085}
        inSlope: {x: 0.30578205, y: -0.078111276, z: 0.030797644, w: -0.024609264}
        outSlope: {x: 0.30578205, y: -0.078111276, z: 0.030797644, w: -0.024609264}
        tangentMode: 0
      - serializedVersion: 2
        time: 0.5
        value: {x: 0.09314954, y: -0.10576646, z: 0.009507976, w: 0.98997283}
        inSlope: {x: 0.0016211271, y: -0.042075813, z: -0.000641916, w: -0.00465184}
        outSlope: {x: 0.0016211271, y: -0.042075813, z: -0.000641916, w: -0.00465184}
        tangentMode: 0
      - serializedVersion: 2
        time: 0.8000001
        value: {x: 0.11434981, y: -0.11110305, z: 0.016100384, w: 0.987077}
        inSlope: {x: 0.06126401, y: 0.036605343, z: -0.016634956, w: -0.0027260184}
        outSlope: {x: 0.06126401, y: 0.036605343, z: -0.016634956, w: -0.0027260184}
        tangentMode: 0
      - serializedVersion: 2
        time: 1.0333334
        value: {x: 0.08514653, y: -0.10081255, z: 0.020568982, w: 0.99104184}
        inSlope: {x: -0.3704281, y: 0.034191787, z: 0.10070964, w: 0.033130616}
        outSlope: {x: -0.3704281, y: 0.034191787, z: 0.10070964, w: 0.033130616}
        tangentMode: 0
      - serializedVersion: 2
        time: 1.2666668
        value: {x: 0.013744927, y: -0.08822396, z: 0.038664088, w: 0.9952551}
        inSlope: {x: -0.14320831, y: 0.035221267, z: -0.013626453, w: 0.005690746}
        outSlope: {x: -0.14320831, y: 0.035221267, z: -0.013626453, w: 0.005690746}
        tangentMode: 0
      - serializedVersion: 2
        time: 1.6333334
        value: {x: 0.013204454, y: -0.08510728, z: 0.01157456, w: 0.9962171}
        inSlope: {x: 0.08564511, y: 0.019323435, z: -0.10175179, w: 0.0018167513}
        outSlope: {x: 0.08564511, y: 0.019323435, z: -0.10175179, w: 0.0018167513}
        tangentMode: 0
      - serializedVersion: 2
        time: 1.8333334
        value: {x: 0.016860679, y: -0.08164737, z: 0.0009119253, w: 0.99651825}
        inSlope: {x: -0.14619875, y: 0.02437035, z: -0.037893392, w: 0.0048977183}
        outSlope: {x: -0.14619875, y: 0.02437035, z: -0.037893392, w: 0.0048977183}
        tangentMode: 0
      m_PreInfinity: 2
      m_PostInfinity: 2
      m_RotationOrder: 4
    path: mixamorig:Hips/mixamorig:Spine/mixamorig:Spine1/mixamorig:Spine2/mixamorig:Neck
  - curve:
      serializedVersion: 2
      m_Curve:
      - serializedVersion: 2
        time: 0
        value: {x: -0.04158975, y: -0.19943617, z: 0.03735407, w: 0.978315}
        inSlope: {x: 0.034911297, y: 0.010167359, z: -0.056885626, w: 0.00565052}
        outSlope: {x: 0.034911297, y: 0.010167359, z: -0.056885626, w: 0.00565052}
        tangentMode: 0
      - serializedVersion: 2
        time: 0.43333337
        value: {x: -0.052540753, y: -0.21194243, z: 0.032621413, w: 0.97532344}
        inSlope: {x: 0.1022295, y: -0.03504776, z: 0.06794899, w: -0.0044140224}
        outSlope: {x: 0.1022295, y: -0.03504776, z: 0.06794899, w: -0.0044140224}
        tangentMode: 0
      - serializedVersion: 2
        time: 0.86666673
        value: {x: -0.050398383, y: -0.20503066, z: 0.04771968, w: 0.9762916}
        inSlope: {x: -0.036850363, y: 0.028480358, z: 0.0124015715, w: 0.0034967058}
        outSlope: {x: -0.036850363, y: 0.028480358, z: 0.0124015715, w: 0.0034967058}
        tangentMode: 0
      - serializedVersion: 2
        time: 1.2666668
        value: {x: -0.024637712, y: -0.18555425, z: 0.025462288, w: 0.98199505}
        inSlope: {x: -0.022809774, y: -0.0015396017, z: 0.032623295, w: -0.0017166155}
        outSlope: {x: -0.022809774, y: -0.0015396017, z: 0.032623295, w: -0.0017166155}
        tangentMode: 0
      - serializedVersion: 2
        time: 1.7666668
        value: {x: -0.051583454, y: -0.19976479, z: 0.044776198, w: 0.97746015}
        inSlope: {x: 0.049134094, y: 0.00034891092, z: -0.09094111, w: 0.0067001646}
        outSlope: {x: 0.049134094, y: 0.00034891092, z: -0.09094111, w: 0.0067001646}
        tangentMode: 0
      - serializedVersion: 2
        time: 1.8333334
        value: {x: -0.041589767, y: -0.19943617, z: 0.037354067, w: 0.978315}
        inSlope: {x: 0.20600167, y: 0.0038091876, z: -0.114183426, w: 0.014843359}
        outSlope: {x: 0.20600167, y: 0.0038091876, z: -0.114183426, w: 0.014843359}
        tangentMode: 0
      m_PreInfinity: 2
      m_PostInfinity: 2
      m_RotationOrder: 4
    path: mixamorig:Hips/mixamorig:Spine/mixamorig:Spine1/mixamorig:Spine2/mixamorig:Neck/mixamorig:Head
  - curve:
      serializedVersion: 2
      m_Curve:
      - serializedVersion: 2
        time: 0
        value: {x: 0.6332014, y: -0.3509534, z: 0.4842563, w: 0.49130797}
        inSlope: {x: -0.019739268, y: -0.02454221, z: 0.014309584, w: -0.0062334533}
        outSlope: {x: -0.019739268, y: -0.02454221, z: 0.014309584, w: -0.0062334533}
        tangentMode: 0
      - serializedVersion: 2
        time: 0.33333334
        value: {x: 0.62934697, y: -0.35401127, z: 0.49456835, w: 0.48373604}
        inSlope: {x: -0.0062468653, y: -0.0017657876, z: 0.026811812, w: -0.02055377}
        outSlope: {x: -0.0062468653, y: -0.0017657876, z: 0.026811812, w: -0.02055377}
        tangentMode: 0
      - serializedVersion: 2
        time: 0.86666673
        value: {x: 0.61365736, y: -0.3721428, z: 0.5032466, w: 0.48132864}
        inSlope: {x: -0.0045213224, y: 0.001560139, z: 0.029898603, w: -0.02435179}
        outSlope: {x: -0.0045213224, y: 0.001560139, z: 0.029898603, w: -0.02435179}
        tangentMode: 0
      - serializedVersion: 2
        time: 1.2
        value: {x: 0.62081, y: -0.36126363, z: 0.5118152, w: 0.4713054}
        inSlope: {x: 0.062112868, y: 0.07227175, z: -0.029738575, w: 0.005887008}
        outSlope: {x: 0.062112868, y: 0.07227175, z: -0.029738575, w: 0.005887008}
        tangentMode: 0
      - serializedVersion: 2
        time: 1.6666667
        value: {x: 0.6315835, y: -0.3527111, z: 0.4863938, w: 0.49001858}
        inSlope: {x: 0.0014823684, y: -0.0045682527, z: -0.036536194, w: 0.031079233}
        outSlope: {x: 0.0014823684, y: -0.0045682527, z: -0.036536194, w: 0.031079233}
        tangentMode: 0
      - serializedVersion: 2
        time: 1.8333334
        value: {x: 0.6332014, y: -0.35095334, z: 0.48425657, w: 0.49130774}
        inSlope: {x: 0.018811245, y: 0.026600387, z: 0.0036299264, w: -0.008780667}
        outSlope: {x: 0.018811245, y: 0.026600387, z: 0.0036299264, w: -0.008780667}
        tangentMode: 0
      m_PreInfinity: 2
      m_PostInfinity: 2
      m_RotationOrder: 4
    path: mixamorig:Hips/mixamorig:Spine/mixamorig:Spine1/mixamorig:Spine2/mixamorig:LeftShoulder
  - curve:
      serializedVersion: 2
      m_Curve:
      - serializedVersion: 2
        time: 0
        value: {x: 0.2758385, y: 0.09039081, z: -0.029364087, w: 0.9564938}
        inSlope: {x: 0.045519765, y: -0.033577234, z: 0.07574312, w: -0.0077855582}
        outSlope: {x: 0.045519765, y: -0.033577234, z: 0.07574312, w: -0.0077855582}
        tangentMode: 0
      - serializedVersion: 2
        time: 0.3
        value: {x: 0.28533384, y: 0.06475166, z: 0.030513838, w: 0.9557514}
        inSlope: {x: 0.03865019, y: -0.12763779, z: 0.14565831, w: -0.007437766}
        outSlope: {x: 0.03865019, y: -0.12763779, z: 0.14565831, w: -0.007437766}
        tangentMode: 0
      - serializedVersion: 2
        time: 0.4666667
        value: {x: 0.27927354, y: 0.043155946, z: 0.06287782, w: 0.9571783}
        inSlope: {x: 0.036404766, y: -0.09738697, z: 0.035665054, w: -0.008538374}
        outSlope: {x: 0.036404766, y: -0.09738697, z: 0.035665054, w: -0.008538374}
        tangentMode: 0
      - serializedVersion: 2
        time: 0.8000001
        value: {x: 0.30044618, y: 0.023080712, z: 0.07901951, w: 0.9502396}
        inSlope: {x: 0.104111284, y: -0.023689047, z: 0.03484389, w: -0.035154816}
        outSlope: {x: 0.104111284, y: -0.023689047, z: 0.03484389, w: -0.035154816}
        tangentMode: 0
      - serializedVersion: 2
        time: 1.0333334
        value: {x: 0.28746197, y: 0.036183957, z: 0.07459362, w: 0.9541971}
        inSlope: {x: -0.09929352, y: 0.15892163, z: -0.15854283, w: 0.03603724}
        outSlope: {x: -0.09929352, y: 0.15892163, z: -0.15854283, w: 0.03603724}
        tangentMode: 0
      - serializedVersion: 2
        time: 1.1666667
        value: {x: 0.27451336, y: 0.061431006, z: 0.044769526, w: 0.9585742}
        inSlope: {x: -0.047806397, y: 0.17089862, z: -0.27216914, w: 0.016383842}
        outSlope: {x: -0.047806397, y: 0.17089862, z: -0.27216914, w: 0.016383842}
        tangentMode: 0
      - serializedVersion: 2
        time: 1.4333334
        value: {x: 0.26329717, y: 0.080636285, z: 0.003908741, w: 0.96133095}
        inSlope: {x: 0.015995368, y: 0.021458251, z: -0.16366568, w: -0.0053581647}
        outSlope: {x: 0.015995368, y: 0.021458251, z: -0.16366568, w: -0.0053581647}
        tangentMode: 0
      - serializedVersion: 2
        time: 1.8333334
        value: {x: 0.27583846, y: 0.090390764, z: -0.029364167, w: 0.9564938}
        inSlope: {x: -0.042129498, y: -0.04239839, z: 0.046831414, w: 0.01769902}
        outSlope: {x: -0.042129498, y: -0.04239839, z: 0.046831414, w: 0.01769902}
        tangentMode: 0
      m_PreInfinity: 2
      m_PostInfinity: 2
      m_RotationOrder: 4
    path: mixamorig:Hips/mixamorig:Spine/mixamorig:Spine1/mixamorig:Spine2/mixamorig:LeftShoulder/mixamorig:LeftArm
  - curve:
      serializedVersion: 2
      m_Curve:
      - serializedVersion: 2
        time: 0
        value: {x: 0.23313415, y: 0.78574175, z: -0.1122539, w: 0.5618341}
        inSlope: {x: 0.05479261, y: -0.017684698, z: -0.025522111, w: -0.003224015}
        outSlope: {x: 0.05479261, y: -0.017684698, z: -0.025522111, w: -0.003224015}
        tangentMode: 0
      - serializedVersion: 2
        time: 0.16666667
        value: {x: 0.2354843, y: 0.78499424, z: -0.11051022, w: 0.5622443}
        inSlope: {x: -0.13500136, y: 0.040676586, z: 0.116890654, w: 0.022509988}
        outSlope: {x: -0.13500136, y: 0.040676586, z: 0.116890654, w: 0.022509988}
        tangentMode: 0
      - serializedVersion: 2
        time: 0.3
        value: {x: 0.21826553, y: 0.789927, z: -0.095051005, w: 0.56510246}
        inSlope: {x: -0.15222655, y: 0.042358343, z: 0.110750765, w: 0.018719139}
        outSlope: {x: -0.15222655, y: 0.042358343, z: 0.110750765, w: 0.018719139}
        tangentMode: 0
      - serializedVersion: 2
        time: 0.4666667
        value: {x: 0.22398306, y: 0.78824174, z: -0.09262937, w: 0.5656203}
        inSlope: {x: -0.057785567, y: 0.016185358, z: 0.060487986, w: 0.009964413}
        outSlope: {x: -0.057785567, y: 0.016185358, z: 0.060487986, w: 0.009964413}
        tangentMode: 0
      - serializedVersion: 2
        time: 0.9333334
        value: {x: 0.21562403, y: 0.79062545, z: -0.08976015, w: 0.5660042}
        inSlope: {x: 0.14443387, y: -0.040530875, z: -0.054659195, w: -0.007574562}
        outSlope: {x: 0.14443387, y: -0.040530875, z: -0.054659195, w: -0.007574562}
        tangentMode: 0
      - serializedVersion: 2
        time: 1.1333334
        value: {x: 0.22515664, y: 0.78799754, z: -0.1003172, w: 0.5641817}
        inSlope: {x: -0.15743719, y: 0.04557878, z: 0.043881636, w: 0.0060662664}
        outSlope: {x: -0.15743719, y: 0.04557878, z: 0.043881636, w: 0.0060662664}
        tangentMode: 0
      - serializedVersion: 2
        time: 1.4333334
        value: {x: 0.21354736, y: 0.7913546, z: -0.10072475, w: 0.5639237}
        inSlope: {x: -0.035822276, y: 0.009837458, z: 0.01555448, w: 0.0026303555}
        outSlope: {x: -0.035822276, y: 0.009837458, z: 0.01555448, w: 0.0026303555}
        tangentMode: 0
      - serializedVersion: 2
        time: 1.6666667
        value: {x: 0.21496929, y: 0.7909615, z: -0.10280763, w: 0.56355906}
        inSlope: {x: 0.05081338, y: -0.014137937, z: -0.048011474, w: -0.008585759}
        outSlope: {x: 0.05081338, y: -0.014137937, z: -0.048011474, w: -0.008585759}
        tangentMode: 0
      - serializedVersion: 2
        time: 1.8333334
        value: {x: 0.23313399, y: 0.78574187, z: -0.112253666, w: 0.561834}
        inSlope: {x: 0.16987385, y: -0.050658036, z: -0.074634776, w: -0.013453973}
        outSlope: {x: 0.16987385, y: -0.050658036, z: -0.074634776, w: -0.013453973}
        tangentMode: 0
      m_PreInfinity: 2
      m_PostInfinity: 2
      m_RotationOrder: 4
    path: mixamorig:Hips/mixamorig:Spine/mixamorig:Spine1/mixamorig:Spine2/mixamorig:LeftShoulder/mixamorig:LeftArm/mixamorig:LeftForeArm
  - curve:
      serializedVersion: 2
      m_Curve:
      - serializedVersion: 2
        time: 0
        value: {x: 0.022392083, y: -0.019745814, z: -0.059629053, w: 0.99777406}
        inSlope: {x: -0.041354407, y: 0.03264617, z: -0.04285935, w: -0.0010639429}
        outSlope: {x: -0.041354407, y: 0.03264617, z: -0.04285935, w: -0.0010639429}
        tangentMode: 0
      - serializedVersion: 2
        time: 0.20000002
        value: {x: 0.017364573, y: -0.027768964, z: -0.06396117, w: 0.9974148}
        inSlope: {x: 0.051456563, y: -0.10514498, z: -0.00016037372, w: -0.003816783}
        outSlope: {x: 0.051456563, y: -0.10514498, z: -0.00016037372, w: -0.003816783}
        tangentMode: 0
      - serializedVersion: 2
        time: 0.43333337
        value: {x: 0.020059267, y: -0.045909718, z: -0.06407416, w: 0.99668676}
        inSlope: {x: -0.057070345, y: -0.0600669, z: -0.006337725, w: -0.0019258263}
        outSlope: {x: -0.057070345, y: -0.0600669, z: -0.006337725, w: -0.0019258263}
        tangentMode: 0
      - serializedVersion: 2
        time: 0.73333335
        value: {x: 0.02689153, y: -0.054029312, z: -0.05502675, w: 0.99665934}
        inSlope: {x: 0.014191179, y: -0.021258362, z: 0.039326116, w: 0.00066250574}
        outSlope: {x: 0.014191179, y: -0.021258362, z: 0.039326116, w: 0.00066250574}
        tangentMode: 0
      - serializedVersion: 2
        time: 1
        value: {x: 0.017474083, y: -0.041583426, z: -0.06422941, w: 0.9969153}
        inSlope: {x: -0.006035271, y: 0.12627307, z: -0.026235463, w: 0.0037613492}
        outSlope: {x: -0.006035271, y: 0.12627307, z: -0.026235463, w: 0.0037613492}
        tangentMode: 0
      - serializedVersion: 2
        time: 1.2333333
        value: {x: 0.02889745, y: -0.02751144, z: -0.062054105, w: 0.99727494}
        inSlope: {x: -0.007759858, y: 0.021471234, z: 0.01458425, w: 0.0017425406}
        outSlope: {x: -0.007759858, y: 0.021471234, z: 0.01458425, w: 0.0017425406}
        tangentMode: 0
      - serializedVersion: 2
        time: 1.8333334
        value: {x: 0.022392046, y: -0.01974579, z: -0.059628922, w: 0.99777406}
        inSlope: {x: -0.10872931, y: -0.042621013, z: -0.07372259, w: -0.0024908804}
        outSlope: {x: -0.10872931, y: -0.042621013, z: -0.07372259, w: -0.0024908804}
        tangentMode: 0
      m_PreInfinity: 2
      m_PostInfinity: 2
      m_RotationOrder: 4
    path: mixamorig:Hips/mixamorig:Spine/mixamorig:Spine1/mixamorig:Spine2/mixamorig:LeftShoulder/mixamorig:LeftArm/mixamorig:LeftForeArm/mixamorig:LeftHand
  - curve:
      serializedVersion: 2
      m_Curve:
      - serializedVersion: 2
        time: 0
        value: {x: 0.050369624, y: 0.016854087, z: 0.00081685866, w: 0.99858814}
        inSlope: {x: -0.0363465, y: -0.003843717, z: 0.037207805, w: 0.0018203257}
        outSlope: {x: -0.0363465, y: -0.003843717, z: 0.037207805, w: 0.0018203257}
        tangentMode: 0
      - serializedVersion: 2
        time: 0.40000004
        value: {x: 0.036916967, y: 0.012622228, z: 0.05615468, w: 0.9976595}
        inSlope: {x: -0.026023563, y: -0.016872961, z: 0.20198624, w: -0.010168251}
        outSlope: {x: -0.026023563, y: -0.016872961, z: 0.20198624, w: -0.010168251}
        tangentMode: 0
      - serializedVersion: 2
        time: 1.1333334
        value: {x: 0.036284074, y: 0.010326594, z: 0.08250465, w: 0.99587643}
        inSlope: {x: 0.036209963, y: 0.017609973, z: -0.1991267, w: 0.014954196}
        outSlope: {x: 0.036209963, y: 0.017609973, z: -0.1991267, w: 0.014954196}
        tangentMode: 0
      - serializedVersion: 2
        time: 1.6000001
        value: {x: 0.049505744, y: 0.01637664, z: 0.013104699, w: 0.9985536}
        inSlope: {x: 0.009890581, y: 0.0072999047, z: -0.05673068, w: 0.00014036873}
        outSlope: {x: 0.009890581, y: 0.0072999047, z: -0.05673068, w: 0.00014036873}
        tangentMode: 0
      - serializedVersion: 2
        time: 1.8333334
        value: {x: 0.050369773, y: 0.016854025, z: 0.000816801, w: 0.9985881}
        inSlope: {x: -0.0031131536, y: -0.0038202517, z: -0.062252663, w: 0.00033795866}
        outSlope: {x: -0.0031131536, y: -0.0038202517, z: -0.062252663, w: 0.00033795866}
        tangentMode: 0
      m_PreInfinity: 2
      m_PostInfinity: 2
      m_RotationOrder: 4
    path: mixamorig:Hips/mixamorig:Spine/mixamorig:Spine1/mixamorig:Spine2/mixamorig:LeftShoulder/mixamorig:LeftArm/mixamorig:LeftForeArm/mixamorig:LeftHand/mixamorig:LeftHandIndex1
  - curve:
      serializedVersion: 2
      m_Curve:
      - serializedVersion: 2
        time: 0
        value: {x: -0.12591371, y: -0.005799266, z: -0.26427424, w: 0.9561753}
        inSlope: {x: 0.002273619, y: -0.0000831345, z: 0.0053009386, w: 0.0017631053}
        outSlope: {x: 0.002273619, y: -0.0000831345, z: 0.0053009386, w: 0.0017631053}
        tangentMode: 0
      - serializedVersion: 2
        time: 1.2
        value: {x: -0.12514539, y: -0.007705255, z: -0.24843591, w: 0.9604993}
        inSlope: {x: -0.0022012016, y: 0.00590053, z: -0.048674315, w: -0.012829018}
        outSlope: {x: -0.0022012016, y: 0.00590053, z: -0.048674315, w: -0.012829018}
        tangentMode: 0
      - serializedVersion: 2
        time: 1.8333334
        value: {x: -0.12591366, y: -0.005799375, z: -0.2642743, w: 0.9561753}
        inSlope: {x: -0.0026902582, y: 0.0012513914, z: -0.01493366, w: -0.0044685644}
        outSlope: {x: -0.0026902582, y: 0.0012513914, z: -0.01493366, w: -0.0044685644}
        tangentMode: 0
      m_PreInfinity: 2
      m_PostInfinity: 2
      m_RotationOrder: 4
    path: mixamorig:Hips/mixamorig:Spine/mixamorig:Spine1/mixamorig:Spine2/mixamorig:LeftShoulder/mixamorig:LeftArm/mixamorig:LeftForeArm/mixamorig:LeftHand/mixamorig:LeftHandIndex1/mixamorig:LeftHandIndex2
  - curve:
      serializedVersion: 2
      m_Curve:
      - serializedVersion: 2
        time: 0
        value: {x: 0.10312601, y: 0.10886453, z: -0.07273825, w: 0.98601353}
        inSlope: {x: 0.00018641351, y: -0.0005628168, z: 0.005570277, w: 0.00045418736}
        outSlope: {x: 0.00018641351, y: -0.0005628168, z: 0.005570277, w: 0.00045418736}
        tangentMode: 0
      - serializedVersion: 2
        time: 1.2
        value: {x: 0.10353415, y: 0.107101545, z: -0.056336667, w: 0.9872366}
        inSlope: {x: -0.0011510041, y: 0.0055036745, z: -0.050299626, w: -0.0033474}
        outSlope: {x: -0.0011510041, y: 0.0055036745, z: -0.050299626, w: -0.0033474}
        tangentMode: 0
      - serializedVersion: 2
        time: 1.8333334
        value: {x: 0.10312578, y: 0.10886467, z: -0.07273788, w: 0.9860136}
        inSlope: {x: -0.0018464791, y: 0.00045932873, z: -0.015672162, w: -0.0010102997}
        outSlope: {x: -0.0018464791, y: 0.00045932873, z: -0.015672162, w: -0.0010102997}
        tangentMode: 0
      m_PreInfinity: 2
      m_PostInfinity: 2
      m_RotationOrder: 4
    path: mixamorig:Hips/mixamorig:Spine/mixamorig:Spine1/mixamorig:Spine2/mixamorig:LeftShoulder/mixamorig:LeftArm/mixamorig:LeftForeArm/mixamorig:LeftHand/mixamorig:LeftHandIndex1/mixamorig:LeftHandIndex2/mixamorig:LeftHandIndex3
  - curve:
      serializedVersion: 2
      m_Curve:
      - serializedVersion: 2
        time: 0
        value: {x: 0.6420757, y: 0.31220746, z: -0.44460565, w: 0.5409169}
        inSlope: {x: -0.003967881, y: 0.005588829, z: 0.00089317554, w: 0.0022155046}
        outSlope: {x: -0.003967881, y: 0.005588829, z: 0.00089317554, w: 0.0022155046}
        tangentMode: 0
      - serializedVersion: 2
        time: 0.33333334
        value: {x: 0.6302016, y: 0.33168644, z: -0.43451256, w: 0.5513882}
        inSlope: {x: -0.061526306, y: 0.09784878, z: 0.049446527, w: 0.050671402}
        outSlope: {x: -0.061526306, y: 0.09784878, z: 0.049446527, w: 0.050671402}
        tangentMode: 0
      - serializedVersion: 2
        time: 0.7666667
        value: {x: 0.61851853, y: 0.35079843, z: -0.42584187, w: 0.55949444}
        inSlope: {x: -0.042521022, y: 0.070652455, z: 0.02934558, w: 0.02512155}
        outSlope: {x: -0.042521022, y: 0.070652455, z: 0.02934558, w: 0.02512155}
        tangentMode: 0
      - serializedVersion: 2
        time: 1.0333334
        value: {x: 0.61726356, y: 0.3544486, z: -0.43543613, w: 0.55113286}
        inSlope: {x: 0.07093273, y: -0.10867719, z: -0.098205395, w: -0.08689275}
        outSlope: {x: 0.07093273, y: -0.10867719, z: -0.098205395, w: -0.08689275}
        tangentMode: 0
      - serializedVersion: 2
        time: 1.5333334
        value: {x: 0.63517064, y: 0.32440647, z: -0.44254747, w: 0.54357207}
        inSlope: {x: 0.050140366, y: -0.08816609, z: -0.03424648, w: -0.0338808}
        outSlope: {x: 0.050140366, y: -0.08816609, z: -0.03424648, w: -0.0338808}
        tangentMode: 0
      - serializedVersion: 2
        time: 1.8333334
        value: {x: 0.64207566, y: 0.31220743, z: -0.44460556, w: 0.5409171}
        inSlope: {x: -0.022623561, y: 0.039036013, z: 0.012416852, w: 0.014603748}
        outSlope: {x: -0.022623561, y: 0.039036013, z: 0.012416852, w: 0.014603748}
        tangentMode: 0
      m_PreInfinity: 2
      m_PostInfinity: 2
      m_RotationOrder: 4
    path: mixamorig:Hips/mixamorig:Spine/mixamorig:Spine1/mixamorig:Spine2/mixamorig:RightShoulder
  - curve:
      serializedVersion: 2
      m_Curve:
      - serializedVersion: 2
        time: 0
        value: {x: 0.34344253, y: -0.12795532, z: -0.27099702, w: 0.890076}
        inSlope: {x: -0.022785364, y: 0.053849813, z: -0.06530106, w: -0.003492236}
        outSlope: {x: -0.022785364, y: 0.053849813, z: -0.06530106, w: -0.003492236}
        tangentMode: 0
      - serializedVersion: 2
        time: 0.3
        value: {x: 0.3619537, y: -0.08170552, z: -0.28732744, w: 0.88303834}
        inSlope: {x: 0.11010156, y: 0.21352854, z: -0.1289566, w: -0.06731451}
        outSlope: {x: 0.11010156, y: 0.21352854, z: -0.1289566, w: -0.06731451}
        tangentMode: 0
      - serializedVersion: 2
        time: 0.6333334
        value: {x: 0.3571999, y: -0.04702847, z: -0.35535592, w: 0.8625073}
        inSlope: {x: -0.022761667, y: 0.041059498, z: -0.23099855, w: -0.083321035}
        outSlope: {x: -0.022761667, y: 0.041059498, z: -0.23099855, w: -0.083321035}
        tangentMode: 0
      - serializedVersion: 2
        time: 0.86666673
        value: {x: 0.3703907, y: -0.03878732, z: -0.39427564, w: 0.8401506}
        inSlope: {x: 0.06810619, y: -0.02509215, z: -0.044880945, w: -0.052150175}
        outSlope: {x: 0.06810619, y: -0.02509215, z: -0.044880945, w: -0.052150175}
        tangentMode: 0
      - serializedVersion: 2
        time: 1.0333334
        value: {x: 0.35648623, y: -0.053436235, z: -0.39164475, w: 0.8465675}
        inSlope: {x: -0.22091769, y: -0.12309853, z: 0.0642304, w: 0.11501928}
        outSlope: {x: -0.22091769, y: -0.12309853, z: 0.0642304, w: 0.11501928}
        tangentMode: 0
      - serializedVersion: 2
        time: 1.3333334
        value: {x: 0.33694813, y: -0.0874807, z: -0.34645292, w: 0.8710818}
        inSlope: {x: -0.007699298, y: -0.09030926, z: 0.15133232, w: 0.05412425}
        outSlope: {x: -0.007699298, y: -0.09030926, z: 0.15133232, w: 0.05412425}
        tangentMode: 0
      - serializedVersion: 2
        time: 1.8333334
        value: {x: 0.34344274, y: -0.12795526, z: -0.27099702, w: 0.8900759}
        inSlope: {x: 0.066036046, y: 0.0333086, z: 0.068686076, w: 0.00041127243}
        outSlope: {x: 0.066036046, y: 0.0333086, z: 0.068686076, w: 0.00041127243}
        tangentMode: 0
      m_PreInfinity: 2
      m_PostInfinity: 2
      m_RotationOrder: 4
    path: mixamorig:Hips/mixamorig:Spine/mixamorig:Spine1/mixamorig:Spine2/mixamorig:RightShoulder/mixamorig:RightArm
  - curve:
      serializedVersion: 2
      m_Curve:
      - serializedVersion: 2
        time: 0
        value: {x: 0.34757465, y: -0.72301674, z: 0.21428381, w: 0.55724424}
        inSlope: {x: 0.10193645, y: 0.048957463, z: 0.07075846, w: -0.027825234}
        outSlope: {x: 0.10193645, y: 0.048957463, z: 0.07075846, w: -0.027825234}
        tangentMode: 0
      - serializedVersion: 2
        time: 0.16666667
        value: {x: 0.35546127, y: -0.7192639, z: 0.22026685, w: 0.5547875}
        inSlope: {x: -0.10203613, y: -0.055992, z: -0.084551476, w: 0.026103254}
        outSlope: {x: -0.10203613, y: -0.055992, z: -0.084551476, w: 0.026103254}
        tangentMode: 0
      - serializedVersion: 2
        time: 0.53333336
        value: {x: 0.36715916, y: -0.71078426, z: 0.24072829, w: 0.54957235}
        inSlope: {x: 0.1458222, y: 0.09313874, z: 0.1829446, w: -0.05694772}
        outSlope: {x: 0.1458222, y: 0.09313874, z: 0.1829446, w: -0.05694772}
        tangentMode: 0
      - serializedVersion: 2
        time: 0.86666673
        value: {x: 0.3928967, y: -0.6919888, z: 0.27807412, w: 0.5380134}
        inSlope: {x: -0.015857667, y: -0.012414159, z: -0.028574027, w: 0.010372998}
        outSlope: {x: -0.015857667, y: -0.012414159, z: -0.028574027, w: 0.010372998}
        tangentMode: 0
      - serializedVersion: 2
        time: 1.0333334
        value: {x: 0.39742836, y: -0.68863744, z: 0.28374904, w: 0.5360183}
        inSlope: {x: 0.10279241, y: 0.072346255, z: 0.12201001, w: -0.047656547}
        outSlope: {x: 0.10279241, y: 0.072346255, z: 0.12201001, w: -0.047656547}
        tangentMode: 0
      - serializedVersion: 2
        time: 1.5333334
        value: {x: 0.38155296, y: -0.7019522, z: 0.25374597, w: 0.5452462}
        inSlope: {x: -0.060131162, y: -0.04706119, z: -0.10221014, w: 0.0289956}
        outSlope: {x: -0.060131162, y: -0.04706119, z: -0.10221014, w: 0.0289956}
        tangentMode: 0
      - serializedVersion: 2
        time: 1.8333334
        value: {x: 0.34757483, y: -0.7230166, z: 0.21428399, w: 0.5572442}
        inSlope: {x: -0.11571687, y: -0.059602316, z: -0.09139502, w: 0.030773908}
        outSlope: {x: -0.11571687, y: -0.059602316, z: -0.09139502, w: 0.030773908}
        tangentMode: 0
      m_PreInfinity: 2
      m_PostInfinity: 2
      m_RotationOrder: 4
    path: mixamorig:Hips/mixamorig:Spine/mixamorig:Spine1/mixamorig:Spine2/mixamorig:RightShoulder/mixamorig:RightArm/mixamorig:RightForeArm
  - curve:
      serializedVersion: 2
      m_Curve:
      - serializedVersion: 2
        time: 0
        value: {x: 0.30333942, y: 0.02235667, z: -0.07022759, w: 0.9500282}
        inSlope: {x: -0.2995017, y: -0.019844769, z: 0.043696087, w: 0.09754478}
        outSlope: {x: -0.2995017, y: -0.019844769, z: 0.043696087, w: 0.09754478}
        tangentMode: 0
      - serializedVersion: 2
        time: 0.20000002
        value: {x: 0.25520253, y: 0.023467427, z: -0.073704496, w: 0.9637887}
        inSlope: {x: -0.09671463, y: 0.030917648, z: -0.06989579, w: 0.019543465}
        outSlope: {x: -0.09671463, y: 0.030917648, z: -0.06989579, w: 0.019543465}
        tangentMode: 0
      - serializedVersion: 2
        time: 0.6666667
        value: {x: 0.17665155, y: 0.018701773, z: -0.108707145, w: 0.97807324}
        inSlope: {x: -0.010963324, y: 0.030723903, z: -0.113780424, w: -0.011328752}
        outSlope: {x: -0.010963324, y: 0.030723903, z: -0.113780424, w: -0.011328752}
        tangentMode: 0
      - serializedVersion: 2
        time: 0.9333334
        value: {x: 0.2157845, y: 0.031477105, z: -0.12586689, w: 0.9677829}
        inSlope: {x: 0.17238447, y: 0.036366183, z: -0.025419734, w: -0.04292071}
        outSlope: {x: 0.17238447, y: 0.036366183, z: -0.025419734, w: -0.04292071}
        tangentMode: 0
      - serializedVersion: 2
        time: 1.2333333
        value: {x: 0.25230464, y: 0.013362081, z: -0.09895528, w: 0.96248204}
        inSlope: {x: 0.20711061, y: -0.01317956, z: 0.12858558, w: -0.0408357}
        outSlope: {x: 0.20711061, y: -0.01317956, z: 0.12858558, w: -0.0408357}
        tangentMode: 0
      - serializedVersion: 2
        time: 1.5666667
        value: {x: 0.28970194, y: 0.024738768, z: -0.070907, w: 0.9541661}
        inSlope: {x: 0.03550926, y: 0.070993096, z: 0.06430435, w: -0.007848127}
        outSlope: {x: 0.03550926, y: 0.070993096, z: 0.06430435, w: -0.007848127}
        tangentMode: 0
      - serializedVersion: 2
        time: 1.8333334
        value: {x: 0.30333948, y: 0.022356752, z: -0.07022766, w: 0.9500281}
        inSlope: {x: 0.066176414, y: -0.11622805, z: -0.059116613, w: -0.022380373}
        outSlope: {x: 0.066176414, y: -0.11622805, z: -0.059116613, w: -0.022380373}
        tangentMode: 0
      m_PreInfinity: 2
      m_PostInfinity: 2
      m_RotationOrder: 4
    path: mixamorig:Hips/mixamorig:Spine/mixamorig:Spine1/mixamorig:Spine2/mixamorig:RightShoulder/mixamorig:RightArm/mixamorig:RightForeArm/mixamorig:RightHand
  - curve:
      serializedVersion: 2
      m_Curve:
      - serializedVersion: 2
        time: 0
        value: {x: 0.03922803, y: 0.06742393, z: -0.31910446, w: 0.94450384}
        inSlope: {x: 0, y: 0, z: 0, w: 0}
        outSlope: {x: 0, y: 0, z: 0, w: 0}
        tangentMode: 0
      - serializedVersion: 2
        time: 0.033333335
        value: {x: 0.03922803, y: 0.06742393, z: -0.31910446, w: 0.94450384}
        inSlope: {x: 0, y: 0, z: 0, w: 0}
        outSlope: {x: 0, y: 0, z: 0, w: 0}
        tangentMode: 0
      m_PreInfinity: 2
      m_PostInfinity: 2
      m_RotationOrder: 4
    path: mixamorig:Hips/mixamorig:Spine/mixamorig:Spine1/mixamorig:Spine2/mixamorig:RightShoulder/mixamorig:RightArm/mixamorig:RightForeArm/mixamorig:RightHand/mixamorig:RightHandIndex1
  - curve:
      serializedVersion: 2
      m_Curve:
      - serializedVersion: 2
        time: 0
        value: {x: 0.105576955, y: -0.039154038, z: -0.32024673, w: 0.94061816}
        inSlope: {x: 0, y: 0, z: 0, w: 0}
        outSlope: {x: 0, y: 0, z: 0, w: 0}
        tangentMode: 0
      - serializedVersion: 2
        time: 0.033333335
        value: {x: 0.105576955, y: -0.039154038, z: -0.32024673, w: 0.94061816}
        inSlope: {x: 0, y: 0, z: 0, w: 0}
        outSlope: {x: 0, y: 0, z: 0, w: 0}
        tangentMode: 0
      m_PreInfinity: 2
      m_PostInfinity: 2
      m_RotationOrder: 4
    path: mixamorig:Hips/mixamorig:Spine/mixamorig:Spine1/mixamorig:Spine2/mixamorig:RightShoulder/mixamorig:RightArm/mixamorig:RightForeArm/mixamorig:RightHand/mixamorig:RightHandIndex1/mixamorig:RightHandIndex2
  - curve:
      serializedVersion: 2
      m_Curve:
      - serializedVersion: 2
        time: 0
        value: {x: -0.09314069, y: 0.08880184, z: -0.41536003, w: 0.9005082}
        inSlope: {x: 0, y: 0, z: 0, w: 0}
        outSlope: {x: 0, y: 0, z: 0, w: 0}
        tangentMode: 0
      - serializedVersion: 2
        time: 0.033333335
        value: {x: -0.09314069, y: 0.08880184, z: -0.41536003, w: 0.9005082}
        inSlope: {x: 0, y: 0, z: 0, w: 0}
        outSlope: {x: 0, y: 0, z: 0, w: 0}
        tangentMode: 0
      m_PreInfinity: 2
      m_PostInfinity: 2
      m_RotationOrder: 4
    path: mixamorig:Hips/mixamorig:Spine/mixamorig:Spine1/mixamorig:Spine2/mixamorig:RightShoulder/mixamorig:RightArm/mixamorig:RightForeArm/mixamorig:RightHand/mixamorig:RightHandIndex1/mixamorig:RightHandIndex2/mixamorig:RightHandIndex3
  - curve:
      serializedVersion: 2
      m_Curve:
      - serializedVersion: 2
        time: 0
        value: {x: -0.38583305, y: 0.3956458, z: 0.79743445, w: 0.24227168}
        inSlope: {x: 0.0009781122, y: -0.017589033, z: 0.0005453825, w: 0.02841085}
        outSlope: {x: 0.0009781122, y: -0.017589033, z: 0.0005453825, w: 0.02841085}
        tangentMode: 0
      - serializedVersion: 2
        time: 0.4666667
        value: {x: -0.3980053, y: 0.34100926, z: 0.8192843, w: 0.23254608}
        inSlope: {x: -0.01368866, y: -0.06622243, z: 0.029499844, w: -0.030213758}
        outSlope: {x: -0.01368866, y: -0.06622243, z: 0.029499844, w: -0.030213758}
        tangentMode: 0
      - serializedVersion: 2
        time: 1.1
        value: {x: -0.3964291, y: 0.35062551, z: 0.81828016, w: 0.22432862}
        inSlope: {x: 0.021888595, y: 0.10380185, z: -0.034639806, w: 0.0028292832}
        outSlope: {x: 0.021888595, y: 0.10380185, z: -0.034639806, w: 0.0028292832}
        tangentMode: 0
      - serializedVersion: 2
        time: 1.5666667
        value: {x: -0.38870728, y: 0.38378543, z: 0.80332446, w: 0.23724523}
        inSlope: {x: 0.018608259, y: 0.06945085, z: -0.0396162, w: 0.05239333}
        outSlope: {x: 0.018608259, y: 0.06945085, z: -0.0396162, w: 0.05239333}
        tangentMode: 0
      - serializedVersion: 2
        time: 1.8333334
        value: {x: -0.38583305, y: 0.395646, z: 0.79743433, w: 0.24227162}
        inSlope: {x: 0.0046679424, y: 0.020597598, z: -0.009015807, w: 0.003499839}
        outSlope: {x: 0.0046679424, y: 0.020597598, z: -0.009015807, w: 0.003499839}
        tangentMode: 0
      m_PreInfinity: 2
      m_PostInfinity: 2
      m_RotationOrder: 4
    path: mixamorig:Hips/mixamorig:LeftUpLeg
  - curve:
      serializedVersion: 2
      m_Curve:
      - serializedVersion: 2
        time: 0
        value: {x: -0.42861873, y: -0.18992433, z: 0.106780395, w: 0.8768196}
        inSlope: {x: -0.015128552, y: -0.008992552, z: 0.0073324884, w: -0.010244249}
        outSlope: {x: -0.015128552, y: -0.008992552, z: 0.0073324884, w: -0.010244249}
        tangentMode: 0
      - serializedVersion: 2
        time: 0.33333334
        value: {x: -0.38061616, y: -0.18169375, z: 0.098205455, w: 0.9013736}
        inSlope: {x: 0.2043146, y: 0.032342527, z: -0.02993312, w: 0.096173294}
        outSlope: {x: 0.2043146, y: 0.032342527, z: -0.02993312, w: 0.096173294}
        tangentMode: 0
      - serializedVersion: 2
        time: 0.73333335
        value: {x: -0.34540895, y: -0.17713454, z: 0.093922354, w: 0.91678494}
        inSlope: {x: 0.07569687, y: -0.017571596, z: 0.006829573, w: 0.024451023}
        outSlope: {x: 0.07569687, y: -0.017571596, z: 0.006829573, w: 0.024451023}
        tangentMode: 0
      - serializedVersion: 2
        time: 1.3666668
        value: {x: -0.39718005, y: -0.19027653, z: 0.10340629, w: 0.89182395}
        inSlope: {x: -0.07674063, y: -0.010417458, z: 0.013509713, w: -0.037981838}
        outSlope: {x: -0.07674063, y: -0.010417458, z: 0.013509713, w: -0.037981838}
        tangentMode: 0
      - serializedVersion: 2
        time: 1.8333334
        value: {x: -0.428619, y: -0.18992427, z: 0.10678026, w: 0.87681955}
        inSlope: {x: -0.014064623, y: -0.010381947, z: 0.008102737, w: -0.010102997}
        outSlope: {x: -0.014064623, y: -0.010381947, z: 0.008102737, w: -0.010102997}
        tangentMode: 0
      m_PreInfinity: 2
      m_PostInfinity: 2
      m_RotationOrder: 4
    path: mixamorig:Hips/mixamorig:LeftUpLeg/mixamorig:LeftLeg
  - curve:
      serializedVersion: 2
      m_Curve:
      - serializedVersion: 2
        time: 0
        value: {x: 0.4542559, y: 0.21706375, z: 0.04587809, w: 0.86280364}
        inSlope: {x: 0.0021868944, y: -0.008645654, z: 0.00016003846, w: 0.001013875}
        outSlope: {x: 0.0021868944, y: -0.008645654, z: 0.00016003846, w: 0.001013875}
        tangentMode: 0
      - serializedVersion: 2
        time: 0.53333336
        value: {x: 0.44166505, y: 0.2330342, z: 0.052394945, w: 0.8648016}
        inSlope: {x: 0.0028207875, y: 0.010802811, z: 0.0031847854, w: -0.0045436583}
        outSlope: {x: 0.0028207875, y: 0.010802811, z: 0.0031847854, w: -0.0045436583}
        tangentMode: 0
      - serializedVersion: 2
        time: 1
        value: {x: 0.4330777, y: 0.22476327, z: 0.047692806, w: 0.87157935}
        inSlope: {x: 0.02659632, y: -0.026751205, z: -0.0077582207, w: -0.0058937077}
        outSlope: {x: 0.02659632, y: -0.026751205, z: -0.0077582207, w: -0.0058937077}
        tangentMode: 0
      - serializedVersion: 2
        time: 1.8333334
        value: {x: 0.45425585, y: 0.21706365, z: 0.04587802, w: 0.8628037}
        inSlope: {x: 0.0008010872, y: -0.016323939, z: -0.008233942, w: 0.0041306056}
        outSlope: {x: 0.0008010872, y: -0.016323939, z: -0.008233942, w: 0.0041306056}
        tangentMode: 0
      m_PreInfinity: 2
      m_PostInfinity: 2
      m_RotationOrder: 4
    path: mixamorig:Hips/mixamorig:LeftUpLeg/mixamorig:LeftLeg/mixamorig:LeftFoot
  - curve:
      serializedVersion: 2
      m_Curve:
      - serializedVersion: 2
        time: 0
        value: {x: 0.3318963, y: 0.06893657, z: 0.019670496, w: 0.94058794}
        inSlope: {x: 0, y: 0, z: 0, w: 0}
        outSlope: {x: 0, y: 0, z: 0, w: 0}
        tangentMode: 0
      - serializedVersion: 2
        time: 0.033333335
        value: {x: 0.3318963, y: 0.06893657, z: 0.019670496, w: 0.94058794}
        inSlope: {x: 0, y: 0, z: 0, w: 0}
        outSlope: {x: 0, y: 0, z: 0, w: 0}
        tangentMode: 0
      m_PreInfinity: 2
      m_PostInfinity: 2
      m_RotationOrder: 4
    path: mixamorig:Hips/mixamorig:LeftUpLeg/mixamorig:LeftLeg/mixamorig:LeftFoot/mixamorig:LeftToeBase
  - curve:
      serializedVersion: 2
      m_Curve:
      - serializedVersion: 2
        time: 0
        value: {x: 0.069260046, y: 0.24445862, z: 0.9274065, w: -0.27451837}
        inSlope: {x: -0.0043784827, y: -0.03702655, z: 0.009588002, w: -0.0015905498}
        outSlope: {x: -0.0043784827, y: -0.03702655, z: 0.009588002, w: -0.0015905498}
        tangentMode: 0
      - serializedVersion: 2
        time: 0.40000004
        value: {x: 0.06586541, y: 0.22979313, z: 0.93298084, w: -0.26907927}
        inSlope: {x: 0.037265815, y: -0.023537489, z: 0.0010648353, w: -0.0073215356}
        outSlope: {x: 0.037265815, y: -0.023537489, z: 0.0010648353, w: -0.0073215356}
        tangentMode: 0
      - serializedVersion: 2
        time: 0.8000001
        value: {x: 0.07071613, y: 0.21778375, z: 0.9343205, w: -0.2731569}
        inSlope: {x: 0.034942806, y: -0.05221837, z: 0.010201337, w: 0.002286583}
        outSlope: {x: 0.034942806, y: -0.05221837, z: 0.010201337, w: 0.002286583}
        tangentMode: 0
      - serializedVersion: 2
        time: 1.3666668
        value: {x: 0.07006097, y: 0.2281222, z: 0.9291647, w: -0.28232014}
        inSlope: {x: 0.00010002298, y: 0.017147155, z: -0.00241041, w: 0.0059880503}
        outSlope: {x: 0.00010002298, y: 0.017147155, z: -0.00241041, w: 0.0059880503}
        tangentMode: 0
      - serializedVersion: 2
        time: 1.8333334
        value: {x: 0.069259815, y: 0.24445918, z: 0.9274064, w: -0.27451822}
        inSlope: {x: 0.019188095, y: -0.031296045, z: 0.008751162, w: 0.0064453543}
        outSlope: {x: 0.019188095, y: -0.031296045, z: 0.008751162, w: 0.0064453543}
        tangentMode: 0
      m_PreInfinity: 2
      m_PostInfinity: 2
      m_RotationOrder: 4
    path: mixamorig:Hips/mixamorig:RightUpLeg
  - curve:
      serializedVersion: 2
      m_Curve:
      - serializedVersion: 2
        time: 0
        value: {x: -0.49634075, y: 0.07400587, z: -0.011490766, w: 0.8648913}
        inSlope: {x: -0.01153618, y: 0.0020644069, z: -0.0065412926, w: -0.0068879123}
        outSlope: {x: -0.01153618, y: 0.0020644069, z: -0.0065412926, w: -0.0068879123}
        tangentMode: 0
      - serializedVersion: 2
        time: 0.26666668
        value: {x: -0.4576153, y: 0.07146292, z: -0.010195416, w: 0.8862152}
        inSlope: {x: 0.2923103, y: -0.010617525, z: -0.012882176, w: 0.1516396}
        outSlope: {x: 0.2923103, y: -0.010617525, z: -0.012882176, w: 0.1516396}
        tangentMode: 0
      - serializedVersion: 2
        time: 0.8000001
        value: {x: -0.39945987, y: 0.06945549, z: -0.010964455, w: 0.9140501}
        inSlope: {x: -0.008509318, y: -0.015974237, z: -0.008678997, w: -0.002615158}
        outSlope: {x: -0.008509318, y: -0.015974237, z: -0.008678997, w: -0.002615158}
        tangentMode: 0
      - serializedVersion: 2
        time: 1.3333334
        value: {x: -0.47429013, y: 0.073806435, z: -0.00794816, w: 0.8772334}
        inSlope: {x: -0.08673006, y: 0.008023171, z: -0.003997742, w: -0.04756984}
        outSlope: {x: -0.08673006, y: 0.008023171, z: -0.003997742, w: -0.04756984}
        tangentMode: 0
      - serializedVersion: 2
        time: 1.8333334
        value: {x: -0.4963424, y: 0.07400602, z: -0.011490705, w: 0.86489034}
        inSlope: {x: 0.0049138116, y: -0.0072978507, z: 0.008867755, w: 0.0035655533}
        outSlope: {x: 0.0049138116, y: -0.0072978507, z: 0.008867755, w: 0.0035655533}
        tangentMode: 0
      m_PreInfinity: 2
      m_PostInfinity: 2
      m_RotationOrder: 4
    path: mixamorig:Hips/mixamorig:RightUpLeg/mixamorig:RightLeg
  - curve:
      serializedVersion: 2
      m_Curve:
      - serializedVersion: 2
        time: 0
        value: {x: 0.64646393, y: -0.23980227, z: -0.23633632, w: 0.6846345}
        inSlope: {x: 0.0097453585, y: 0.0055539603, z: 0.00030130145, w: -0.007156133}
        outSlope: {x: 0.0097453585, y: 0.0055539603, z: 0.00030130145, w: -0.007156133}
        tangentMode: 0
      - serializedVersion: 2
        time: 0.53333336
        value: {x: 0.60493577, y: -0.23855406, z: -0.22612688, w: 0.72526634}
        inSlope: {x: -0.043660067, y: -0.024581755, z: -0.007971072, w: 0.025863625}
        outSlope: {x: -0.043660067, y: -0.024581755, z: -0.007971072, w: 0.025863625}
        tangentMode: 0
      - serializedVersion: 2
        time: 1.0333334
        value: {x: 0.617707, y: -0.2399549, z: -0.22976635, w: 0.7127883}
        inSlope: {x: 0.099088766, y: -0.020764519, z: -0.038322683, w: -0.10516574}
        outSlope: {x: 0.099088766, y: -0.020764519, z: -0.038322683, w: -0.10516574}
        tangentMode: 0
      - serializedVersion: 2
        time: 1.8333334
        value: {x: 0.6464653, y: -0.23980224, z: -0.23633666, w: 0.6846331}
        inSlope: {x: 0.014895215, y: -0.003079626, z: -0.012659592, w: -0.019496102}
        outSlope: {x: 0.014895215, y: -0.003079626, z: -0.012659592, w: -0.019496102}
        tangentMode: 0
      m_PreInfinity: 2
      m_PostInfinity: 2
      m_RotationOrder: 4
    path: mixamorig:Hips/mixamorig:RightUpLeg/mixamorig:RightLeg/mixamorig:RightFoot
  - curve:
      serializedVersion: 2
      m_Curve:
      - serializedVersion: 2
        time: 0
        value: {x: 0.31962997, y: -0.09267531, z: 0.0063961097, w: 0.9429778}
        inSlope: {x: 0.004095733, y: 0.00072889024, z: -0.002228343, w: -0.0013017653}
        outSlope: {x: 0.004095733, y: 0.00072889024, z: -0.002228343, w: -0.0013017653}
        tangentMode: 0
      - serializedVersion: 2
        time: 0.6666667
        value: {x: 0.316623, y: -0.090051316, z: 0.0062676305, w: 0.9442465}
        inSlope: {x: -0.0035767271, y: 0.001821548, z: 0.0005626606, w: 0.0013697145}
        outSlope: {x: -0.0035767271, y: 0.001821548, z: 0.0005626606, w: 0.0013697145}
        tangentMode: 0
      - serializedVersion: 2
        time: 1.5666667
        value: {x: 0.32111076, y: -0.09276497, z: 0.005787558, w: 0.94246966}
        inSlope: {x: -0.006666135, y: -0.0024089245, z: 0.0043115476, w: 0.0019964448}
        outSlope: {x: -0.006666135, y: -0.0024089245, z: 0.0043115476, w: 0.0019964448}
        tangentMode: 0
      - serializedVersion: 2
        time: 1.8333334
        value: {x: 0.3196299, y: -0.09267534, z: 0.006395959, w: 0.9429778}
        inSlope: {x: 0.007679172, y: 0.007373176, z: -0.0075303786, w: -0.0018239039}
        outSlope: {x: 0.007679172, y: 0.007373176, z: -0.0075303786, w: -0.0018239039}
        tangentMode: 0
      m_PreInfinity: 2
      m_PostInfinity: 2
      m_RotationOrder: 4
    path: mixamorig:Hips/mixamorig:RightUpLeg/mixamorig:RightLeg/mixamorig:RightFoot/mixamorig:RightToeBase
  m_CompressedRotationCurves: []
  m_EulerCurves: []
  m_PositionCurves:
  - curve:
      serializedVersion: 2
      m_Curve:
      - serializedVersion: 2
        time: 0
        value: {x: 0.0030934687, y: 0.39848778, z: 0.008008089}
        inSlope: {x: 0.0027038534, y: -0.004484448, z: -0.002845858}
        outSlope: {x: 0.0027038534, y: -0.004484448, z: -0.002845858}
        tangentMode: 0
      - serializedVersion: 2
        time: 0.13333334
        value: {x: 0.0034011242, y: 0.40041327, z: 0.008254749}
        inSlope: {x: 0.0006903045, y: 0.042913802, z: 0.008020418}
        outSlope: {x: 0.0006902763, y: 0.042918008, z: 0.008020547}
        tangentMode: 0
      - serializedVersion: 2
        time: 0.23333333
        value: {x: 0.0034000655, y: 0.40632576, z: 0.00964594}
        inSlope: {x: -0.00008099294, y: 0.06791627, z: 0.018622445}
        outSlope: {x: -0.0000809141, y: 0.06792713, z: 0.018622447}
        tangentMode: 0
      - serializedVersion: 2
        time: 0.3
        value: {x: 0.0033576572, y: 0.41087142, z: 0.011022704}
        inSlope: {x: -0.0014513951, y: 0.06291024, z: 0.021275034}
        outSlope: {x: -0.0014514095, y: 0.062912256, z: 0.021274796}
        tangentMode: 0
      - serializedVersion: 2
        time: 0.33333334
        value: {x: 0.0032951569, y: 0.41283104, z: 0.011715357}
        inSlope: {x: -0.0036363455, y: 0.05375153, z: 0.019624086}
        outSlope: {x: -0.003636385, y: 0.053745806, z: 0.019624395}
        tangentMode: 0
      - serializedVersion: 2
        time: 0.36666667
        value: {x: 0.0031152314, y: 0.41445476, z: 0.012330992}
        inSlope: {x: -0.0046589454, y: 0.04486301, z: 0.018040787}
        outSlope: {x: -0.004658971, y: 0.044865794, z: 0.018040644}
        tangentMode: 0
      - serializedVersion: 2
        time: 0.4
        value: {x: 0.0029845585, y: 0.41582218, z: 0.012918078}
        inSlope: {x: -0.0045087673, y: 0.035999347, z: 0.016811427}
        outSlope: {x: -0.004508761, y: 0.035995044, z: 0.016811471}
        tangentMode: 0
      - serializedVersion: 2
        time: 0.43333334
        value: {x: 0.0028146463, y: 0.4168549, z: 0.013451766}
        inSlope: {x: -0.00414066, y: 0.027286636, z: 0.016051939}
        outSlope: {x: -0.0041407216, y: 0.027289089, z: 0.016052078}
        tangentMode: 0
      - serializedVersion: 2
        time: 0.5
        value: {x: 0.0026232402, y: 0.4182165, z: 0.014501423}
        inSlope: {x: -0.0024574448, y: 0.015092139, z: 0.0138573}
        outSlope: {x: -0.0024574653, y: 0.015095505, z: 0.013857209}
        tangentMode: 0
      - serializedVersion: 2
        time: 0.53333336
        value: {x: 0.0025446813, y: 0.41864753, z: 0.014912047}
        inSlope: {x: -0.0015143076, y: 0.012490614, z: 0.011794721}
        outSlope: {x: -0.0015143642, y: 0.012486986, z: 0.011794914}
        tangentMode: 0
      - serializedVersion: 2
        time: 0.56666666
        value: {x: 0.0025222832, y: 0.4190489, z: 0.01528775}
        inSlope: {x: -0.0008584996, y: 0.011783991, z: 0.009266653}
        outSlope: {x: -0.00085849315, y: 0.011781463, z: 0.009266653}
        tangentMode: 0
      - serializedVersion: 2
        time: 0.6
        value: {x: 0.002487448, y: 0.4194331, z: 0.015529833}
        inSlope: {x: -0.0004239969, y: 0.011710619, z: 0.006602839}
        outSlope: {x: -0.00042398914, y: 0.011712002, z: 0.006602843}
        tangentMode: 0
      - serializedVersion: 2
        time: 0.7
        value: {x: 0.002491621, y: 0.42064384, z: 0.015759591}
        inSlope: {x: -0.0003722237, y: 0.011291458, z: -0.0032162848}
        outSlope: {x: -0.00037220973, y: 0.011291602, z: -0.003215989}
        tangentMode: 0
      - serializedVersion: 2
        time: 0.76666665
        value: {x: 0.0024791774, y: 0.42123884, z: 0.015361412}
        inSlope: {x: 0.000880884, y: 0.0047591655, z: -0.008048757}
        outSlope: {x: 0.0008808595, y: 0.0047586667, z: -0.008048787}
        tangentMode: 0
      - serializedVersion: 2
        time: 0.8666667
        value: {x: 0.0027016916, y: 0.42101198, z: 0.014630362}
        inSlope: {x: 0.0036738846, y: -0.010297874, z: -0.0058117914}
        outSlope: {x: 0.003673976, y: -0.010296476, z: -0.005811785}
        tangentMode: 0
      - serializedVersion: 2
        time: 1
        value: {x: 0.003122121, y: 0.41763523, z: 0.01343379}
        inSlope: {x: 0.0016064636, y: -0.03874377, z: -0.013363205}
        outSlope: {x: 0.0016065901, y: -0.038742423, z: -0.0133634955}
        tangentMode: 0
      - serializedVersion: 2
        time: 1.0666667
        value: {x: 0.003239091, y: 0.41482314, z: 0.012511986}
        inSlope: {x: 0.0035897582, y: -0.04381609, z: -0.012589857}
        outSlope: {x: 0.003589821, y: -0.043818314, z: -0.012590364}
        tangentMode: 0
      - serializedVersion: 2
        time: 1.2
        value: {x: 0.0039149625, y: 0.40936255, z: 0.011340941}
        inSlope: {x: 0.0041233045, y: -0.033039816, z: -0.005878609}
        outSlope: {x: 0.0041235336, y: -0.033044077, z: -0.0058786944}
        tangentMode: 0
      - serializedVersion: 2
        time: 1.2333333
        value: {x: 0.0040202807, y: 0.40836537, z: 0.011124288}
        inSlope: {x: 0.0039041033, y: -0.030008666, z: -0.0049512456}
        outSlope: {x: 0.003904117, y: -0.030011063, z: -0.0049513653}
        tangentMode: 0
      - serializedVersion: 2
        time: 1.3
        value: {x: 0.0043080556, y: 0.40645954, z: 0.010933552}
        inSlope: {x: 0.0044683954, y: -0.025395276, z: -0.0050340747}
        outSlope: {x: 0.0044682333, y: -0.02539704, z: -0.0050337133}
        tangentMode: 0
      - serializedVersion: 2
        time: 1.3333334
        value: {x: 0.004473128, y: 0.4056686, z: 0.010675245}
        inSlope: {x: 0.004024563, y: -0.02244883, z: -0.006386906}
        outSlope: {x: 0.0040247855, y: -0.022453217, z: -0.0063873786}
        tangentMode: 0
      - serializedVersion: 2
        time: 1.4
        value: {x: 0.004657316, y: 0.4043152, z: 0.010225034}
        inSlope: {x: 0.0010172578, y: -0.018731268, z: -0.009435528}
        outSlope: {x: 0.0010172641, y: -0.018735357, z: -0.009435377}
        tangentMode: 0
      - serializedVersion: 2
        time: 1.4666667
        value: {x: 0.00457693, y: 0.40313318, z: 0.009543405}
        inSlope: {x: -0.003430242, y: -0.018195292, z: -0.010649181}
        outSlope: {x: -0.0034303863, y: -0.01820533, z: -0.010649677}
        tangentMode: 0
      - serializedVersion: 2
        time: 1.5333333
        value: {x: 0.004271856, y: 0.40183112, z: 0.008824448}
        inSlope: {x: -0.0048470083, y: -0.020377256, z: -0.010116311}
        outSlope: {x: -0.0048468607, y: -0.0203786, z: -0.010116088}
        tangentMode: 0
      - serializedVersion: 2
        time: 1.6666666
        value: {x: 0.0034953675, y: 0.39964995, z: 0.007901601}
        inSlope: {x: -0.0067798477, y: -0.011997505, z: -0.0025950035}
        outSlope: {x: -0.0067796665, y: -0.011999642, z: -0.0025950703}
        tangentMode: 0
      - serializedVersion: 2
        time: 1.7333333
        value: {x: 0.0031043047, y: 0.39899573, z: 0.007842576}
        inSlope: {x: -0.0036065732, y: -0.007870817, z: 0.00024110531}
        outSlope: {x: -0.0036066114, y: -0.007867057, z: 0.00024125587}
        tangentMode: 0
      - serializedVersion: 2
        time: 1.8
        value: {x: 0.0030149668, y: 0.39856032, z: 0.007919189}
        inSlope: {x: 0.0010328371, y: -0.0041216747, z: 0.0020565349}
        outSlope: {x: 0.001032724, y: -0.004115339, z: 0.002056431}
        tangentMode: 0
      - serializedVersion: 2
        time: 1.8333334
        value: {x: 0.003093393, y: 0.39848778, z: 0.008008113}
        inSlope: {x: 0.002352708, y: -0.0021698484, z: 0.0026676324}
        outSlope: {x: 0.002352708, y: -0.0021698484, z: 0.0026676324}
        tangentMode: 0
      m_PreInfinity: 2
      m_PostInfinity: 2
      m_RotationOrder: 4
    path: mixamorig:Hips
  m_ScaleCurves:
  - curve:
      serializedVersion: 2
      m_Curve:
      - serializedVersion: 2
        time: 0
        value: {x: 1, y: 1, z: 1}
        inSlope: {x: 0, y: 0, z: 0}
        outSlope: {x: 0, y: 0, z: 0}
        tangentMode: 0
      - serializedVersion: 2
        time: 1.8333334
        value: {x: 1, y: 1, z: 1}
        inSlope: {x: 0, y: 0, z: 0}
        outSlope: {x: 0, y: 0, z: 0}
        tangentMode: 0
      m_PreInfinity: 2
      m_PostInfinity: 2
      m_RotationOrder: 4
    path: mixamorig:Hips/mixamorig:Spine
  - curve:
      serializedVersion: 2
      m_Curve:
      - serializedVersion: 2
        time: 0
        value: {x: 1, y: 1, z: 1}
        inSlope: {x: 0, y: 0, z: 0}
        outSlope: {x: 0, y: 0, z: 0}
        tangentMode: 0
      - serializedVersion: 2
        time: 1.8333334
        value: {x: 1, y: 1, z: 1}
        inSlope: {x: 0, y: 0, z: 0}
        outSlope: {x: 0, y: 0, z: 0}
        tangentMode: 0
      m_PreInfinity: 2
      m_PostInfinity: 2
      m_RotationOrder: 4
    path: mixamorig:Hips/mixamorig:Spine/mixamorig:Spine1/mixamorig:Spine2/mixamorig:Neck
  - curve:
      serializedVersion: 2
      m_Curve:
      - serializedVersion: 2
        time: 0
        value: {x: 1, y: 1, z: 1}
        inSlope: {x: 0, y: 0, z: 0}
        outSlope: {x: 0, y: 0, z: 0}
        tangentMode: 0
      - serializedVersion: 2
        time: 1.8333334
        value: {x: 1, y: 1, z: 1}
        inSlope: {x: 0, y: 0, z: 0}
        outSlope: {x: 0, y: 0, z: 0}
        tangentMode: 0
      m_PreInfinity: 2
      m_PostInfinity: 2
      m_RotationOrder: 4
    path: mixamorig:Hips/mixamorig:Spine/mixamorig:Spine1/mixamorig:Spine2/mixamorig:LeftShoulder
  - curve:
      serializedVersion: 2
      m_Curve:
      - serializedVersion: 2
        time: 0
        value: {x: 1, y: 1, z: 1}
        inSlope: {x: 0, y: 0, z: 0}
        outSlope: {x: 0, y: 0, z: 0}
        tangentMode: 0
      - serializedVersion: 2
        time: 1.8333334
        value: {x: 1, y: 1, z: 1}
        inSlope: {x: 0, y: 0, z: 0}
        outSlope: {x: 0, y: 0, z: 0}
        tangentMode: 0
      m_PreInfinity: 2
      m_PostInfinity: 2
      m_RotationOrder: 4
    path: mixamorig:Hips/mixamorig:Spine/mixamorig:Spine1/mixamorig:Spine2/mixamorig:LeftShoulder/mixamorig:LeftArm
  - curve:
      serializedVersion: 2
      m_Curve:
      - serializedVersion: 2
        time: 0
        value: {x: 1, y: 1, z: 1}
        inSlope: {x: 0, y: 0, z: 0}
        outSlope: {x: 0, y: 0, z: 0}
        tangentMode: 0
      - serializedVersion: 2
        time: 1.8333334
        value: {x: 1, y: 1, z: 1}
        inSlope: {x: 0, y: 0, z: 0}
        outSlope: {x: 0, y: 0, z: 0}
        tangentMode: 0
      m_PreInfinity: 2
      m_PostInfinity: 2
      m_RotationOrder: 4
    path: mixamorig:Hips/mixamorig:Spine/mixamorig:Spine1/mixamorig:Spine2/mixamorig:LeftShoulder/mixamorig:LeftArm/mixamorig:LeftForeArm
  - curve:
      serializedVersion: 2
      m_Curve:
      - serializedVersion: 2
        time: 0
        value: {x: 1, y: 1, z: 1}
        inSlope: {x: 0, y: 0, z: 0}
        outSlope: {x: 0, y: 0, z: 0}
        tangentMode: 0
      - serializedVersion: 2
        time: 1.8333334
        value: {x: 1, y: 1, z: 1}
        inSlope: {x: 0, y: 0, z: 0}
        outSlope: {x: 0, y: 0, z: 0}
        tangentMode: 0
      m_PreInfinity: 2
      m_PostInfinity: 2
      m_RotationOrder: 4
    path: mixamorig:Hips/mixamorig:Spine/mixamorig:Spine1/mixamorig:Spine2/mixamorig:LeftShoulder/mixamorig:LeftArm/mixamorig:LeftForeArm/mixamorig:LeftHand
  - curve:
      serializedVersion: 2
      m_Curve:
      - serializedVersion: 2
        time: 0
        value: {x: 1, y: 1, z: 1}
        inSlope: {x: 0, y: 0, z: 0}
        outSlope: {x: 0, y: 0, z: 0}
        tangentMode: 0
      - serializedVersion: 2
        time: 1.8333334
        value: {x: 1, y: 1, z: 1}
        inSlope: {x: 0, y: 0, z: 0}
        outSlope: {x: 0, y: 0, z: 0}
        tangentMode: 0
      m_PreInfinity: 2
      m_PostInfinity: 2
      m_RotationOrder: 4
    path: mixamorig:Hips/mixamorig:Spine/mixamorig:Spine1/mixamorig:Spine2/mixamorig:LeftShoulder/mixamorig:LeftArm/mixamorig:LeftForeArm/mixamorig:LeftHand/mixamorig:LeftHandIndex1
  - curve:
      serializedVersion: 2
      m_Curve:
      - serializedVersion: 2
        time: 0
        value: {x: 1, y: 1, z: 1}
        inSlope: {x: 0, y: 0, z: 0}
        outSlope: {x: 0, y: 0, z: 0}
        tangentMode: 0
      - serializedVersion: 2
        time: 1.8333334
        value: {x: 1, y: 1, z: 1}
        inSlope: {x: 0, y: 0, z: 0}
        outSlope: {x: 0, y: 0, z: 0}
        tangentMode: 0
      m_PreInfinity: 2
      m_PostInfinity: 2
      m_RotationOrder: 4
    path: mixamorig:Hips/mixamorig:Spine/mixamorig:Spine1/mixamorig:Spine2/mixamorig:RightShoulder
  - curve:
      serializedVersion: 2
      m_Curve:
      - serializedVersion: 2
        time: 0
        value: {x: 1, y: 1, z: 1}
        inSlope: {x: 0, y: 0, z: 0}
        outSlope: {x: 0, y: 0, z: 0}
        tangentMode: 0
      - serializedVersion: 2
        time: 1.8333334
        value: {x: 1, y: 1, z: 1}
        inSlope: {x: 0, y: 0, z: 0}
        outSlope: {x: 0, y: 0, z: 0}
        tangentMode: 0
      m_PreInfinity: 2
      m_PostInfinity: 2
      m_RotationOrder: 4
    path: mixamorig:Hips/mixamorig:Spine/mixamorig:Spine1/mixamorig:Spine2/mixamorig:RightShoulder/mixamorig:RightArm
  - curve:
      serializedVersion: 2
      m_Curve:
      - serializedVersion: 2
        time: 0
        value: {x: 1, y: 1, z: 1}
        inSlope: {x: 0, y: 0, z: 0}
        outSlope: {x: 0, y: 0, z: 0}
        tangentMode: 0
      - serializedVersion: 2
        time: 1.8333334
        value: {x: 1, y: 1, z: 1}
        inSlope: {x: 0, y: 0, z: 0}
        outSlope: {x: 0, y: 0, z: 0}
        tangentMode: 0
      m_PreInfinity: 2
      m_PostInfinity: 2
      m_RotationOrder: 4
    path: mixamorig:Hips/mixamorig:Spine/mixamorig:Spine1/mixamorig:Spine2/mixamorig:RightShoulder/mixamorig:RightArm/mixamorig:RightForeArm
  - curve:
      serializedVersion: 2
      m_Curve:
      - serializedVersion: 2
        time: 0
        value: {x: 1, y: 1, z: 1}
        inSlope: {x: 0, y: 0, z: 0}
        outSlope: {x: 0, y: 0, z: 0}
        tangentMode: 0
      - serializedVersion: 2
        time: 1.8333334
        value: {x: 1, y: 1, z: 1}
        inSlope: {x: 0, y: 0, z: 0}
        outSlope: {x: 0, y: 0, z: 0}
        tangentMode: 0
      m_PreInfinity: 2
      m_PostInfinity: 2
      m_RotationOrder: 4
    path: mixamorig:Hips/mixamorig:Spine/mixamorig:Spine1/mixamorig:Spine2/mixamorig:RightShoulder/mixamorig:RightArm/mixamorig:RightForeArm/mixamorig:RightHand
  - curve:
      serializedVersion: 2
      m_Curve:
      - serializedVersion: 2
        time: 0
        value: {x: 1, y: 1, z: 1}
        inSlope: {x: 0, y: 0, z: 0}
        outSlope: {x: 0, y: 0, z: 0}
        tangentMode: 0
      - serializedVersion: 2
        time: 0.033333335
        value: {x: 1, y: 1, z: 1}
        inSlope: {x: 0, y: 0, z: 0}
        outSlope: {x: 0, y: 0, z: 0}
        tangentMode: 0
      m_PreInfinity: 2
      m_PostInfinity: 2
      m_RotationOrder: 4
    path: mixamorig:Hips/mixamorig:Spine/mixamorig:Spine1/mixamorig:Spine2/mixamorig:RightShoulder/mixamorig:RightArm/mixamorig:RightForeArm/mixamorig:RightHand/mixamorig:RightHandIndex1
  - curve:
      serializedVersion: 2
      m_Curve:
      - serializedVersion: 2
        time: 0
        value: {x: 1, y: 1, z: 1}
        inSlope: {x: 0, y: 0, z: 0}
        outSlope: {x: 0, y: 0, z: 0}
        tangentMode: 0
      - serializedVersion: 2
        time: 1.8333334
        value: {x: 1, y: 1, z: 1}
        inSlope: {x: 0, y: 0, z: 0}
        outSlope: {x: 0, y: 0, z: 0}
        tangentMode: 0
      m_PreInfinity: 2
      m_PostInfinity: 2
      m_RotationOrder: 4
    path: mixamorig:Hips/mixamorig:LeftUpLeg
  - curve:
      serializedVersion: 2
      m_Curve:
      - serializedVersion: 2
        time: 0
        value: {x: 1, y: 1, z: 1}
        inSlope: {x: 0, y: 0, z: 0}
        outSlope: {x: 0, y: 0, z: 0}
        tangentMode: 0
      - serializedVersion: 2
        time: 1.8333334
        value: {x: 1, y: 1, z: 1}
        inSlope: {x: 0, y: 0, z: 0}
        outSlope: {x: 0, y: 0, z: 0}
        tangentMode: 0
      m_PreInfinity: 2
      m_PostInfinity: 2
      m_RotationOrder: 4
    path: mixamorig:Hips/mixamorig:LeftUpLeg/mixamorig:LeftLeg
  - curve:
      serializedVersion: 2
      m_Curve:
      - serializedVersion: 2
        time: 0
        value: {x: 1, y: 1, z: 1}
        inSlope: {x: 0, y: 0, z: 0}
        outSlope: {x: 0, y: 0, z: 0}
        tangentMode: 0
      - serializedVersion: 2
        time: 1.8333334
        value: {x: 1, y: 1, z: 1}
        inSlope: {x: 0, y: 0, z: 0}
        outSlope: {x: 0, y: 0, z: 0}
        tangentMode: 0
      m_PreInfinity: 2
      m_PostInfinity: 2
      m_RotationOrder: 4
    path: mixamorig:Hips/mixamorig:LeftUpLeg/mixamorig:LeftLeg/mixamorig:LeftFoot
  - curve:
      serializedVersion: 2
      m_Curve:
      - serializedVersion: 2
        time: 0
        value: {x: 1, y: 1, z: 1}
        inSlope: {x: 0, y: 0, z: 0}
        outSlope: {x: 0, y: 0, z: 0}
        tangentMode: 0
      - serializedVersion: 2
        time: 0.033333335
        value: {x: 1, y: 1, z: 1}
        inSlope: {x: 0, y: 0, z: 0}
        outSlope: {x: 0, y: 0, z: 0}
        tangentMode: 0
      m_PreInfinity: 2
      m_PostInfinity: 2
      m_RotationOrder: 4
    path: mixamorig:Hips/mixamorig:LeftUpLeg/mixamorig:LeftLeg/mixamorig:LeftFoot/mixamorig:LeftToeBase
  - curve:
      serializedVersion: 2
      m_Curve:
      - serializedVersion: 2
        time: 0
        value: {x: 1, y: 1, z: 1}
        inSlope: {x: 0, y: 0, z: 0}
        outSlope: {x: 0, y: 0, z: 0}
        tangentMode: 0
      - serializedVersion: 2
        time: 1.8333334
        value: {x: 1, y: 1, z: 1}
        inSlope: {x: 0, y: 0, z: 0}
        outSlope: {x: 0, y: 0, z: 0}
        tangentMode: 0
      m_PreInfinity: 2
      m_PostInfinity: 2
      m_RotationOrder: 4
    path: mixamorig:Hips/mixamorig:RightUpLeg
  - curve:
      serializedVersion: 2
      m_Curve:
      - serializedVersion: 2
        time: 0
        value: {x: 1, y: 1, z: 1}
        inSlope: {x: 0, y: 0, z: 0}
        outSlope: {x: 0, y: 0, z: 0}
        tangentMode: 0
      - serializedVersion: 2
        time: 1.8333334
        value: {x: 1, y: 1, z: 1}
        inSlope: {x: 0, y: 0, z: 0}
        outSlope: {x: 0, y: 0, z: 0}
        tangentMode: 0
      m_PreInfinity: 2
      m_PostInfinity: 2
      m_RotationOrder: 4
    path: mixamorig:Hips/mixamorig:RightUpLeg/mixamorig:RightLeg
  - curve:
      serializedVersion: 2
      m_Curve:
      - serializedVersion: 2
        time: 0
        value: {x: 1, y: 1, z: 1}
        inSlope: {x: 0, y: 0, z: 0}
        outSlope: {x: 0, y: 0, z: 0}
        tangentMode: 0
      - serializedVersion: 2
        time: 1.8333334
        value: {x: 1, y: 1, z: 1}
        inSlope: {x: 0, y: 0, z: 0}
        outSlope: {x: 0, y: 0, z: 0}
        tangentMode: 0
      m_PreInfinity: 2
      m_PostInfinity: 2
      m_RotationOrder: 4
    path: mixamorig:Hips/mixamorig:RightUpLeg/mixamorig:RightLeg/mixamorig:RightFoot
  - curve:
      serializedVersion: 2
      m_Curve:
      - serializedVersion: 2
        time: 0
        value: {x: 1, y: 1, z: 1}
        inSlope: {x: 0, y: 0, z: 0}
        outSlope: {x: 0, y: 0, z: 0}
        tangentMode: 0
      - serializedVersion: 2
        time: 1.8333334
        value: {x: 1, y: 1, z: 1}
        inSlope: {x: 0, y: 0, z: 0}
        outSlope: {x: 0, y: 0, z: 0}
        tangentMode: 0
      m_PreInfinity: 2
      m_PostInfinity: 2
      m_RotationOrder: 4
    path: mixamorig:Hips/mixamorig:RightUpLeg/mixamorig:RightLeg/mixamorig:RightFoot/mixamorig:RightToeBase
  m_FloatCurves: []
  m_PPtrCurves: []
  m_SampleRate: 30
  m_WrapMode: 0
  m_Bounds:
    m_Center: {x: 0, y: 0, z: 0}
    m_Extent: {x: 0, y: 0, z: 0}
  m_ClipBindingConstant:
    genericBindings:
    - serializedVersion: 2
      path: 2257317975
      attribute: 1
      script: {fileID: 0}
      typeID: 4
      customType: 0
      isPPtrCurve: 0
    - serializedVersion: 2
      path: 2257317975
      attribute: 2
      script: {fileID: 0}
      typeID: 4
      customType: 0
      isPPtrCurve: 0
    - serializedVersion: 2
      path: 3756728238
      attribute: 2
      script: {fileID: 0}
      typeID: 4
      customType: 0
      isPPtrCurve: 0
    - serializedVersion: 2
      path: 769031542
      attribute: 2
      script: {fileID: 0}
      typeID: 4
      customType: 0
      isPPtrCurve: 0
    - serializedVersion: 2
      path: 2758719232
      attribute: 2
      script: {fileID: 0}
      typeID: 4
      customType: 0
      isPPtrCurve: 0
    - serializedVersion: 2
      path: 3234942999
      attribute: 2
      script: {fileID: 0}
      typeID: 4
      customType: 0
      isPPtrCurve: 0
    - serializedVersion: 2
      path: 1493459196
      attribute: 2
      script: {fileID: 0}
      typeID: 4
      customType: 0
      isPPtrCurve: 0
    - serializedVersion: 2
      path: 1247441380
      attribute: 2
      script: {fileID: 0}
      typeID: 4
      customType: 0
      isPPtrCurve: 0
    - serializedVersion: 2
      path: 1661316941
      attribute: 2
      script: {fileID: 0}
      typeID: 4
      customType: 0
      isPPtrCurve: 0
    - serializedVersion: 2
      path: 2652997584
      attribute: 2
      script: {fileID: 0}
      typeID: 4
      customType: 0
      isPPtrCurve: 0
    - serializedVersion: 2
      path: 4243345120
      attribute: 2
      script: {fileID: 0}
      typeID: 4
      customType: 0
      isPPtrCurve: 0
    - serializedVersion: 2
      path: 188368047
      attribute: 2
      script: {fileID: 0}
      typeID: 4
      customType: 0
      isPPtrCurve: 0
    - serializedVersion: 2
      path: 3817294574
      attribute: 2
      script: {fileID: 0}
      typeID: 4
      customType: 0
      isPPtrCurve: 0
    - serializedVersion: 2
      path: 3489429887
      attribute: 2
      script: {fileID: 0}
      typeID: 4
      customType: 0
      isPPtrCurve: 0
    - serializedVersion: 2
      path: 2299221583
      attribute: 2
      script: {fileID: 0}
      typeID: 4
      customType: 0
      isPPtrCurve: 0
    - serializedVersion: 2
      path: 966813807
      attribute: 2
      script: {fileID: 0}
      typeID: 4
      customType: 0
      isPPtrCurve: 0
    - serializedVersion: 2
      path: 3159457673
      attribute: 2
      script: {fileID: 0}
      typeID: 4
      customType: 0
      isPPtrCurve: 0
    - serializedVersion: 2
      path: 1689694167
      attribute: 2
      script: {fileID: 0}
      typeID: 4
      customType: 0
      isPPtrCurve: 0
    - serializedVersion: 2
      path: 1535726681
      attribute: 2
      script: {fileID: 0}
      typeID: 4
      customType: 0
      isPPtrCurve: 0
    - serializedVersion: 2
      path: 978753383
      attribute: 2
      script: {fileID: 0}
      typeID: 4
      customType: 0
      isPPtrCurve: 0
    - serializedVersion: 2
      path: 43917271
      attribute: 2
      script: {fileID: 0}
      typeID: 4
      customType: 0
      isPPtrCurve: 0
    - serializedVersion: 2
      path: 3661226250
      attribute: 2
      script: {fileID: 0}
      typeID: 4
      customType: 0
      isPPtrCurve: 0
    - serializedVersion: 2
      path: 2538846269
      attribute: 2
      script: {fileID: 0}
      typeID: 4
      customType: 0
      isPPtrCurve: 0
    - serializedVersion: 2
      path: 1453815488
      attribute: 2
      script: {fileID: 0}
      typeID: 4
      customType: 0
      isPPtrCurve: 0
    - serializedVersion: 2
      path: 2884633661
      attribute: 2
      script: {fileID: 0}
      typeID: 4
      customType: 0
      isPPtrCurve: 0
    - serializedVersion: 2
      path: 2553124480
      attribute: 2
      script: {fileID: 0}
      typeID: 4
      customType: 0
      isPPtrCurve: 0
    - serializedVersion: 2
      path: 1664857788
      attribute: 2
      script: {fileID: 0}
      typeID: 4
      customType: 0
      isPPtrCurve: 0
    - serializedVersion: 2
      path: 1256943279
      attribute: 2
      script: {fileID: 0}
      typeID: 4
      customType: 0
      isPPtrCurve: 0
    - serializedVersion: 2
      path: 880086333
      attribute: 2
      script: {fileID: 0}
      typeID: 4
      customType: 0
      isPPtrCurve: 0
    - serializedVersion: 2
      path: 3756728238
      attribute: 3
      script: {fileID: 0}
      typeID: 4
      customType: 0
      isPPtrCurve: 0
    - serializedVersion: 2
      path: 3234942999
      attribute: 3
      script: {fileID: 0}
      typeID: 4
      customType: 0
      isPPtrCurve: 0
    - serializedVersion: 2
      path: 1247441380
      attribute: 3
      script: {fileID: 0}
      typeID: 4
      customType: 0
      isPPtrCurve: 0
    - serializedVersion: 2
      path: 1661316941
      attribute: 3
      script: {fileID: 0}
      typeID: 4
      customType: 0
      isPPtrCurve: 0
    - serializedVersion: 2
      path: 2652997584
      attribute: 3
      script: {fileID: 0}
      typeID: 4
      customType: 0
      isPPtrCurve: 0
    - serializedVersion: 2
      path: 4243345120
      attribute: 3
      script: {fileID: 0}
      typeID: 4
      customType: 0
      isPPtrCurve: 0
    - serializedVersion: 2
      path: 188368047
      attribute: 3
      script: {fileID: 0}
      typeID: 4
      customType: 0
      isPPtrCurve: 0
    - serializedVersion: 2
      path: 2299221583
      attribute: 3
      script: {fileID: 0}
      typeID: 4
      customType: 0
      isPPtrCurve: 0
    - serializedVersion: 2
      path: 966813807
      attribute: 3
      script: {fileID: 0}
      typeID: 4
      customType: 0
      isPPtrCurve: 0
    - serializedVersion: 2
      path: 3159457673
      attribute: 3
      script: {fileID: 0}
      typeID: 4
      customType: 0
      isPPtrCurve: 0
    - serializedVersion: 2
      path: 1689694167
      attribute: 3
      script: {fileID: 0}
      typeID: 4
      customType: 0
      isPPtrCurve: 0
    - serializedVersion: 2
      path: 2553124480
      attribute: 3
      script: {fileID: 0}
      typeID: 4
      customType: 0
      isPPtrCurve: 0
    - serializedVersion: 2
      path: 1535726681
      attribute: 3
      script: {fileID: 0}
      typeID: 4
      customType: 0
      isPPtrCurve: 0
    - serializedVersion: 2
      path: 978753383
      attribute: 3
      script: {fileID: 0}
      typeID: 4
      customType: 0
      isPPtrCurve: 0
    - serializedVersion: 2
      path: 43917271
      attribute: 3
      script: {fileID: 0}
      typeID: 4
      customType: 0
      isPPtrCurve: 0
    - serializedVersion: 2
      path: 880086333
      attribute: 3
      script: {fileID: 0}
      typeID: 4
      customType: 0
      isPPtrCurve: 0
    - serializedVersion: 2
      path: 3661226250
      attribute: 3
      script: {fileID: 0}
      typeID: 4
      customType: 0
      isPPtrCurve: 0
    - serializedVersion: 2
      path: 2538846269
      attribute: 3
      script: {fileID: 0}
      typeID: 4
      customType: 0
      isPPtrCurve: 0
    - serializedVersion: 2
      path: 1453815488
      attribute: 3
      script: {fileID: 0}
      typeID: 4
      customType: 0
      isPPtrCurve: 0
    - serializedVersion: 2
      path: 2884633661
      attribute: 3
      script: {fileID: 0}
      typeID: 4
      customType: 0
      isPPtrCurve: 0
    pptrCurveMapping: []
  m_AnimationClipSettings:
    serializedVersion: 2
    m_AdditiveReferencePoseClip: {fileID: 0}
    m_AdditiveReferencePoseTime: 0
    m_StartTime: 0
    m_StopTime: 1.8333334
    m_OrientationOffsetY: 0
    m_Level: 0
    m_CycleOffset: 0
    m_HasAdditiveReferencePose: 0
    m_LoopTime: 1
    m_LoopBlend: 0
    m_LoopBlendOrientation: 0
    m_LoopBlendPositionY: 0
    m_LoopBlendPositionXZ: 0
    m_KeepOriginalOrientation: 0
    m_KeepOriginalPositionY: 1
    m_KeepOriginalPositionXZ: 0
    m_HeightFromFeet: 0
    m_Mirror: 0
  m_EditorCurves: []
  m_EulerEditorCurves: []
  m_HasGenericRootTransform: 0
  m_HasMotionFloatCurves: 0
  m_GenerateMotionCurves: 0
  m_Events: []
