# Blender v2.79 (sub 0) OBJ File: 'untitled.blend'
# www.blender.org
mtllib Wall.mtl
o Copy_Arena_Mods-2.003
v 29.999886 -0.000120 59.999908
v -28.000107 10.999884 -57.000103
v 29.999886 8.999971 -57.000103
v -30.000021 8.999964 -9.000071
v -29.000130 11.999907 -57.000099
v -28.000107 11.999907 -57.000099
v -27.000084 12.999929 -57.000099
v -29.000130 11.999907 -56.000080
v -28.000107 10.999884 -56.000084
v -28.000107 11.999907 -56.000080
v -27.000084 12.999929 -56.000080
v -27.000084 15.999998 -57.000099
v -29.000130 65.999947 -57.000092
v -24.000015 12.999929 -57.000099
v -24.000015 15.999998 -57.000099
v -27.000084 15.999998 -56.000080
v -24.000015 15.999998 -56.000080
v 27.999969 10.999884 -57.000103
v -30.000021 7.999941 -9.000072
v -30.000019 -0.000111 5.383301
v -30.000021 7.999941 -8.000049
v -30.000021 8.999963 -8.000048
v 29.999886 8.999963 -8.000048
v 29.999886 7.999941 -8.000049
v -27.000084 61.999985 -56.000072
v -29.000130 65.999947 -56.000072
v -30.000021 8.999971 -57.000103
v -30.000019 66.964851 -57.000092
v -27.000084 61.999985 -57.000092
v -24.000015 61.999985 -57.000092
v 26.999954 61.999985 -56.000072
v -24.000015 61.999985 -56.000072
v 23.999878 64.999916 -56.000072
v 23.999878 61.999985 -56.000072
v -5.588379 67.802254 -60.000027
v -24.000015 64.999916 -56.000072
v -30.000021 8.999960 8.999941
v -30.000021 7.999938 8.999940
v -30.000021 7.999938 9.999963
v -30.000021 -0.000120 59.999908
v -30.000021 8.999960 9.999964
v 29.999886 7.999938 8.999940
v -30.000021 8.999960 10.999987
v 29.999886 7.999938 9.999963
v 29.999886 8.999960 8.999941
v 29.999886 2.999957 10.999986
v 29.999886 8.999960 9.999964
v -30.000021 2.999949 59.999908
v -30.000021 2.999957 10.999986
v 29.999886 2.999949 59.999908
v -28.000107 65.999947 -57.000092
v -27.000084 64.999916 -57.000092
v 27.999969 66.999962 -57.000092
v -27.000084 64.999916 -56.000072
v -28.000107 65.999947 -56.000069
v -28.000107 66.999962 -57.000092
v -28.000107 69.000008 -57.000092
v -29.000130 69.999901 -57.000092
v -28.000107 69.999901 -57.000092
v -27.000084 70.999931 -57.000092
v -29.000130 69.999901 -56.000072
v -28.000107 69.000008 -56.000072
v -28.000107 69.999901 -56.000072
v -29.000130 123.999931 -57.000084
v -27.000084 73.999992 -57.000092
v -24.000015 64.999916 -57.000092
v -24.000015 70.999931 -57.000092
v -27.000084 70.999931 -56.000072
v -24.000015 73.999992 -57.000092
v -30.000021 125.999977 -57.000084
v -27.000084 73.999992 -56.000072
v -28.000107 66.999962 -56.000072
v -6.083984 78.722664 -60.000027
v 27.999969 66.999962 -56.000072
v -10.860596 88.284431 -60.000023
v -5.092773 92.514168 -60.000023
v 23.999878 70.999931 -56.000072
v -24.000015 73.999992 -56.000072
v -29.000130 123.999931 -56.000065
v -27.000084 119.999977 -56.000065
v -27.000084 119.999977 -57.000084
v -28.000107 123.999931 -57.000084
v -27.000084 122.999916 -56.000065
v -28.000107 123.999931 -56.000065
v -28.000107 124.999969 -57.000084
v -28.000107 124.999969 -56.000065
v -27.000084 122.999916 -57.000084
v -24.000015 119.999977 -57.000084
v -24.000015 122.999916 -57.000084
v -24.000015 122.999916 -56.000065
v 27.999969 124.999969 -56.000065
v -24.000015 119.999977 -56.000065
v 27.999969 124.999969 -57.000084
v 29.999886 125.999977 -57.000084
v -24.000015 12.999929 -56.000080
v 29.999886 -0.000100 -60.000042
v 23.999878 15.999998 -56.000080
v 27.999969 10.999884 -56.000084
v 23.999878 12.999929 -56.000080
v 23.999878 12.999929 -57.000099
v 26.999954 12.999929 -57.000099
v 26.999954 15.999998 -57.000099
v 26.999954 12.999929 -56.000080
v 23.999878 15.999998 -57.000099
v 26.999954 15.999998 -56.000080
v 27.999969 11.999907 -57.000099
v 29.000000 11.999907 -57.000099
v 27.999969 11.999907 -56.000080
v 29.000000 11.999907 -56.000080
v 29.999886 8.999964 -9.000071
v 29.999886 4.454464 -1.121520
v 29.999886 7.999941 -9.000072
v -30.000021 -0.000100 -60.000042
v 26.916504 47.439705 -60.000031
v 29.000000 65.999947 -57.000092
v 29.000000 65.999947 -56.000072
v 23.583984 57.104015 -60.000031
v 20.524902 62.077160 -60.000027
v 27.489014 68.733650 -60.000027
v 23.999878 61.999985 -57.000092
v 26.999954 61.999985 -57.000092
v 29.999886 8.999960 10.999987
v 5.844727 70.075203 -60.000027
v 8.339844 75.518318 -60.000027
v 1.589355 79.816414 -60.000027
v 27.999969 69.000008 -56.000072
v -24.000015 70.999931 -56.000072
v 16.243896 69.647957 -60.000027
v 27.999969 69.000008 -57.000092
v 1.760254 89.326912 -60.000023
v 23.999878 73.999992 -56.000072
v 12.065430 84.071785 -60.000023
v 29.000000 123.999931 -56.000065
v 29.999886 125.999977 -60.000023
v 17.722168 77.406746 -60.000027
v 23.999878 64.999916 -57.000092
v 26.999954 64.999916 -57.000092
v 23.999878 70.999931 -57.000092
v 26.999954 70.999931 -57.000092
v 26.999954 70.999931 -56.000072
v 23.999878 73.999992 -57.000092
v 21.909180 80.944344 -60.000027
v 26.999954 73.999992 -57.000092
v 26.999954 73.999992 -56.000072
v 27.999969 65.999947 -57.000092
v 29.999886 68.195320 -57.000092
v 26.999954 64.999916 -56.000072
v 27.999969 65.999947 -56.000069
v 27.999969 69.999901 -57.000092
v 29.000000 69.999901 -57.000092
v 27.999969 69.999901 -56.000069
v -30.000021 125.999977 -60.000023
v 29.000000 123.999931 -57.000084
v 29.000000 69.999901 -56.000072
v 23.999878 119.999977 -56.000065
v 23.999878 122.999916 -56.000065
v 26.999954 119.999977 -56.000065
v 23.999878 119.999977 -57.000084
v 23.999878 122.999916 -57.000084
v 26.999954 119.999977 -57.000084
v 26.999954 122.999916 -56.000065
v 26.999954 122.999916 -57.000084
v 27.999969 123.999931 -57.000084
v 27.999969 123.999931 -56.000065
vt 0.829310 0.978346
vt 0.829310 0.742126
vt 0.994828 0.742126
vt 0.622414 0.950787
vt 0.625862 0.950787
vt 0.622414 0.954724
vt 0.808620 0.509843
vt 0.822414 0.501969
vt 0.818965 0.509843
vt 0.625862 0.738189
vt 0.629310 0.962598
vt 0.932760 0.214567
vt 0.936208 0.001969
vt 0.936208 0.214567
vt 0.446552 0.966535
vt 0.446552 0.978346
vt 0.436207 0.978346
vt 0.436207 0.966535
vt 0.525862 0.966535
vt 0.529310 0.966535
vt 0.529310 0.978346
vt 0.822414 0.505906
vt 0.825862 0.505906
vt 0.212069 0.974409
vt 0.212069 0.501969
vt 0.418965 0.974409
vt 0.818965 0.521654
vt 0.825862 0.726378
vt 0.922415 0.242125
vt 0.925863 0.242125
vt 0.922415 0.462598
vt 0.650000 0.722441
vt 0.808620 0.521654
vt 0.607299 0.498031
vt 0.656897 0.466535
vt 0.832759 0.498031
vt 0.418965 0.716994
vt 0.994828 0.978346
vt 0.908621 0.001969
vt 0.905173 0.238188
vt 0.905173 0.001969
vt 0.912070 0.001969
vt 0.915518 0.001969
vt 0.915518 0.238188
vt 0.894828 0.242125
vt 0.898277 0.242125
vt 0.894828 0.478345
vt 0.636207 0.501969
vt 0.650000 0.509843
vt 0.650000 0.521654
vt 0.650000 0.710630
vt 0.639655 0.710630
vt 0.418966 0.498032
vt 0.587931 0.486220
vt 0.418965 0.501969
vt 0.587931 0.462598
vt 0.591380 0.466535
vt 0.591380 0.462598
vt 0.905173 0.478345
vt 0.901725 0.478345
vt 0.901725 0.242125
vt 0.898276 0.001969
vt 0.901725 0.001969
vt 0.898276 0.238188
vt 0.908622 0.478345
vt 0.912070 0.242125
vt 0.912070 0.478345
vt 0.887932 0.242125
vt 0.891380 0.478345
vt 0.887932 0.478345
vt 0.836207 0.001969
vt 0.894828 0.001969
vt 0.836207 0.238188
vt 0.632758 0.505906
vt 0.636207 0.505906
vt 0.639655 0.509843
vt 0.622414 0.726378
vt 0.629310 0.734390
vt 0.622414 0.734252
vt 0.822414 0.234390
vt 0.832759 0.001969
vt 0.822415 0.462598
vt 0.625862 0.722441
vt 0.622414 0.738189
vt 0.808620 0.742127
vt 0.822414 0.734252
vt 0.818965 0.742127
vt 0.939656 0.214567
vt 0.943105 0.001969
vt 0.943105 0.214567
vt 0.660345 0.966536
vt 0.663793 0.966536
vt 0.663793 0.978347
vt 0.639655 0.521654
vt 0.622414 0.966535
vt 0.625863 0.978346
vt 0.622414 0.978346
vt 0.450000 0.966535
vt 0.460345 0.978346
vt 0.450000 0.978346
vt 0.085902 0.731093
vt 0.208621 0.998031
vt 0.001724 0.998031
vt 0.125327 0.722145
vt 0.918967 0.462598
vt 0.915518 0.462598
vt 0.918967 0.242125
vt 0.111242 0.646351
vt 0.110653 0.683793
vt 0.084193 0.688100
vt 0.087611 0.633802
vt 0.067722 0.650455
vt 0.001724 0.501969
vt 0.808620 0.753938
vt 0.818965 0.753938
vt 0.818965 0.942914
vt 0.636207 0.734252
vt 0.650000 0.742127
vt 0.639655 0.742127
vt 0.636207 0.738190
vt 0.622414 0.505906
vt 0.629310 0.501969
vt 0.625862 0.509843
vt 0.639655 0.753938
vt 0.681035 0.978347
vt 0.684483 0.966536
vt 0.684483 0.978347
vt 0.643103 0.978348
vt 0.639655 0.978348
vt 0.643103 0.966536
vt 0.929311 0.222441
vt 0.925863 0.001969
vt 0.929311 0.001969
vt 0.632758 0.958662
vt 0.650000 0.753938
vt 0.632758 0.738190
vt 0.639655 0.942914
vt 0.818965 0.710630
vt 0.405173 0.037402
vt 0.415517 0.001969
vt 0.415518 0.498032
vt 0.422414 0.962598
vt 0.425862 0.950787
vt 0.429310 0.950787
vt 0.808620 0.722441
vt 0.818965 0.722441
vt 0.822414 0.726378
vt 0.584483 0.978346
vt 0.581035 0.978346
vt 0.584483 0.966535
vt 0.429310 0.954725
vt 0.212488 0.019506
vt 0.177586 0.037402
vt 0.236207 0.037402
vt 0.636207 0.730315
vt 0.808620 0.710630
vt 0.929312 0.454724
vt 0.932760 0.242125
vt 0.932760 0.454724
vt 0.822414 0.730315
vt 0.186497 0.773212
vt 0.197988 0.811261
vt 0.175948 0.753633
vt 0.199962 0.727426
vt 0.829310 0.501969
vt 0.998276 0.501969
vt 0.998276 0.738189
vt 0.170690 0.013780
vt 0.856897 0.242125
vt 0.836207 0.478345
vt 0.836207 0.242125
vt 0.170690 0.037402
vt 0.174138 0.033465
vt 0.174138 0.037402
vt 0.177586 0.033465
vt 0.001724 0.001969
vt 0.870690 0.242125
vt 0.860345 0.478345
vt 0.860345 0.242125
vt 0.825862 0.958662
vt 0.918966 0.001969
vt 0.922415 0.001969
vt 0.918966 0.222441
vt 0.146778 0.667040
vt 0.632758 0.726378
vt 0.639655 0.722441
vt 0.667241 0.978347
vt 0.670690 0.966536
vt 0.670690 0.978347
vt 0.567241 0.966535
vt 0.570690 0.978346
vt 0.567241 0.978346
vt 0.422414 0.729546
vt 0.425861 0.738189
vt 0.636207 0.726378
vt 0.425861 0.722441
vt 0.429310 0.722441
vt 0.429310 0.726378
vt 0.822414 0.958662
vt 0.818965 0.954725
vt 0.429310 0.734252
vt 0.422414 0.501969
vt 0.432759 0.966535
vt 0.432759 0.978346
vt 0.422414 0.966535
vt 0.133931 0.700715
vt 0.166284 0.693280
vt 0.161186 0.723827
vt 0.208621 0.501969
vt 0.180722 0.679353
vt 0.936208 0.242125
vt 0.939657 0.242125
vt 0.939657 0.454724
vt 0.650000 0.942914
vt 0.487931 0.978346
vt 0.477586 0.978346
vt 0.477586 0.966535
vt 0.639655 0.954725
vt 0.429310 0.505906
vt 0.429310 0.509843
vt 0.425861 0.509843
vt 0.636207 0.958662
vt 0.650000 0.954725
vt 0.808620 0.942914
vt 0.636207 0.962599
vt 0.808620 0.954725
vt 0.822414 0.962599
vt 0.825862 0.738189
vt 0.515517 0.978346
vt 0.505172 0.978346
vt 0.505172 0.966535
vt 0.474138 0.966535
vt 0.463794 0.978346
vt 0.463794 0.966535
vt 0.894828 0.238188
vt 0.739656 0.974410
vt 0.739656 0.978347
vt 0.736207 0.978347
vt 0.736207 0.974410
vt 0.650000 0.966536
vt 0.650000 0.978348
vt 0.646551 0.978348
vt 0.646551 0.966536
vt 0.632758 0.966536
vt 0.636207 0.966536
vt 0.636207 0.978348
vt 0.632758 0.978348
vt 0.605173 0.978346
vt 0.601725 0.978346
vt 0.601725 0.966535
vt 0.605173 0.966535
vt 0.525862 0.978346
vt 0.539655 0.966535
vt 0.543103 0.966535
vt 0.543103 0.978346
vt 0.539655 0.978346
vt 0.925863 0.462598
vt 0.656897 0.462598
vt 0.653449 0.466535
vt 0.653449 0.462598
vt 0.908621 0.238188
vt 0.912070 0.238188
vt 0.898277 0.478345
vt 0.932760 0.001969
vt 0.808622 0.966536
vt 0.808622 0.970473
vt 0.805174 0.970473
vt 0.805174 0.966536
vt 0.594828 0.466535
vt 0.594828 0.462598
vt 0.901725 0.238188
vt 0.905173 0.242125
vt 0.891380 0.242125
vt 0.908622 0.242125
vt 0.418966 0.486220
vt 0.829310 0.738189
vt 0.622414 0.722441
vt 0.777587 0.970473
vt 0.777587 0.966536
vt 0.781036 0.966536
vt 0.781036 0.970473
vt 0.915518 0.242125
vt 0.753449 0.978347
vt 0.750001 0.978347
vt 0.750001 0.974410
vt 0.753449 0.974410
vt 0.801726 0.966536
vt 0.801726 0.970473
vt 0.798277 0.970473
vt 0.798277 0.966536
vt 0.822414 0.001969
vt 0.563793 0.978346
vt 0.560345 0.978346
vt 0.560345 0.966535
vt 0.563793 0.966535
vt 0.822414 0.738189
vt 0.660345 0.978347
vt 0.608621 0.966535
vt 0.612069 0.966535
vt 0.612069 0.978346
vt 0.608621 0.978346
vt 0.618966 0.966535
vt 0.618966 0.978346
vt 0.615518 0.978346
vt 0.615518 0.966535
vt 0.625863 0.966535
vt 0.460345 0.966535
vt 0.705173 0.966536
vt 0.705173 0.978347
vt 0.701724 0.978347
vt 0.701724 0.966536
vt 0.939656 0.001969
vt 0.922415 0.222441
vt 0.812070 0.970473
vt 0.812070 0.966536
vt 0.815519 0.966536
vt 0.815519 0.970473
vt 0.491379 0.978346
vt 0.491379 0.966535
vt 0.501724 0.966535
vt 0.501724 0.978346
vt 0.598276 0.978346
vt 0.594828 0.978346
vt 0.594828 0.966535
vt 0.598276 0.966535
vt 0.639655 0.966536
vt 0.739656 0.966536
vt 0.739656 0.970473
vt 0.736207 0.970473
vt 0.736207 0.966536
vt 0.681035 0.966536
vt 0.622414 0.509843
vt 0.550000 0.978346
vt 0.546552 0.978346
vt 0.546552 0.966535
vt 0.550000 0.966535
vt 0.925863 0.222441
vt 0.836207 0.482282
vt 0.846552 0.494094
vt 0.836207 0.494094
vt 0.846552 0.482282
vt 0.581035 0.966535
vt 0.656896 0.966536
vt 0.656896 0.978348
vt 0.653448 0.978348
vt 0.653448 0.966536
vt 0.794829 0.966536
vt 0.794829 0.970473
vt 0.791381 0.970473
vt 0.791381 0.966536
vt 0.774139 0.970473
vt 0.770691 0.970473
vt 0.770691 0.966536
vt 0.774139 0.966536
vt 0.591380 0.966535
vt 0.591380 0.978346
vt 0.587931 0.978346
vt 0.587931 0.966535
vt 0.518965 0.966535
vt 0.522413 0.966535
vt 0.522413 0.978346
vt 0.518965 0.978346
vt 0.239655 0.033465
vt 0.239655 0.037402
vt 0.236207 0.033465
vt 0.929312 0.242125
vt 0.853449 0.494094
vt 0.850001 0.494094
vt 0.850001 0.482282
vt 0.853449 0.482282
vt 0.856897 0.478345
vt 0.870691 0.478345
vt 0.001724 0.013780
vt 0.787932 0.966536
vt 0.787932 0.970473
vt 0.784484 0.970473
vt 0.784484 0.966536
vt 0.474138 0.978346
vt 0.553448 0.966535
vt 0.556897 0.966535
vt 0.556897 0.978346
vt 0.553448 0.978346
vt 0.822415 0.966536
vt 0.822415 0.970473
vt 0.818967 0.970473
vt 0.818967 0.966536
vt 0.405173 0.270454
vt 0.429310 0.738189
vt 0.756897 0.970473
vt 0.756897 0.966536
vt 0.760346 0.966536
vt 0.760346 0.970473
vt 0.746552 0.978348
vt 0.743104 0.978348
vt 0.743104 0.974410
vt 0.746552 0.974410
vt 0.753449 0.966536
vt 0.753449 0.970473
vt 0.750001 0.970473
vt 0.750001 0.966536
vt 0.677586 0.966536
vt 0.677586 0.978347
vt 0.674138 0.978347
vt 0.674138 0.966536
vt 0.405173 0.498032
vt 0.718966 0.966536
vt 0.718966 0.978347
vt 0.715518 0.978347
vt 0.715518 0.966536
vt 0.422414 0.978346
vt 0.570690 0.966535
vt 0.667241 0.966536
vt 0.884483 0.242125
vt 0.874139 0.478345
vt 0.874139 0.242125
vt 0.936208 0.454724
vt 0.532758 0.966535
vt 0.536207 0.966535
vt 0.536207 0.978346
vt 0.532758 0.978346
vt 0.577586 0.978346
vt 0.574138 0.978346
vt 0.574138 0.966535
vt 0.577586 0.966535
vt 0.698276 0.966536
vt 0.698276 0.978347
vt 0.694828 0.978347
vt 0.694828 0.966536
vt 0.763794 0.966536
vt 0.767242 0.966536
vt 0.767242 0.970473
vt 0.763794 0.970473
vt 0.746552 0.966536
vt 0.746552 0.970473
vt 0.743104 0.970473
vt 0.743104 0.966536
vt 0.884483 0.478345
vt 0.487931 0.966535
vt 0.712069 0.966536
vt 0.712069 0.978347
vt 0.708621 0.978347
vt 0.708621 0.966536
vt 0.691379 0.966536
vt 0.691379 0.978347
vt 0.687931 0.978347
vt 0.687931 0.966536
vt 0.515517 0.966535
vt 0.725863 0.966536
vt 0.725863 0.978347
vt 0.722414 0.978347
vt 0.722414 0.966536
vt 0.732759 0.966536
vt 0.732759 0.978347
vt 0.729311 0.978347
vt 0.729311 0.966536
vn 0.0000 1.0000 0.0000
vn 0.0000 -0.0000 1.0000
vn -1.0000 -0.0000 0.0000
vn 0.0000 -1.0000 -0.0000
vn 0.0000 0.0000 -1.0000
vn 1.0000 0.0000 0.0000
usemtl palette.004
s off
f 3/1/1 27/2/1 4/3/1
f 6/4/2 5/5/2 2/6/2
f 16/7/2 8/8/2 11/9/2
f 13/10/2 27/11/2 5/5/2
f 8/12/3 13/13/3 5/14/3
f 12/15/2 7/16/2 14/17/2
f 15/18/2 12/15/2 14/17/2
f 17/19/3 15/20/3 14/21/3
f 11/9/2 10/22/2 9/23/2
f 96/24/4 1/25/4 113/26/4
f 95/27/2 9/23/2 98/28/2
f 18/29/4 98/30/4 2/31/4
f 31/32/2 16/7/2 17/33/2
f 5/5/2 27/11/2 2/6/2
f 20/34/3 19/35/3 113/36/3
f 1/25/4 20/37/4 113/26/4
f 110/38/1 3/1/1 4/3/1
f 110/39/2 19/40/2 112/41/2
f 23/42/5 24/43/5 21/44/5
f 24/45/1 112/46/1 21/47/1
f 26/48/2 16/7/2 25/49/2
f 32/50/2 25/49/2 16/7/2
f 34/51/2 16/7/2 31/32/2
f 33/52/2 16/7/2 34/51/2
f 32/50/2 16/7/2 33/52/2
f 40/53/3 49/54/3 20/34/3
f 1/25/4 40/55/4 20/37/4
f 49/54/3 43/56/3 39/57/3
f 39/57/3 43/56/3 41/58/3
f 37/59/2 38/60/2 42/61/2
f 44/62/1 42/63/1 39/64/1
f 41/65/5 44/66/5 39/67/5
f 122/68/1 41/69/1 43/70/1
f 45/71/1 23/72/1 37/73/1
f 72/74/2 55/75/2 54/76/2
f 55/75/2 26/48/2 54/76/2
f 57/77/2 28/78/2 56/79/2
f 28/80/3 152/81/3 27/82/3
f 58/83/2 28/78/2 57/77/2
f 56/79/2 28/78/2 51/84/2
f 71/85/2 61/86/2 68/87/2
f 61/88/3 64/89/3 58/90/3
f 68/91/6 60/92/6 65/93/6
f 72/74/2 54/76/2 36/94/2
f 69/95/4 71/96/4 65/97/4
f 69/98/2 60/99/2 67/100/2
f 35/101/5 96/102/5 113/103/5
f 123/104/5 96/102/5 35/101/5
f 74/105/1 53/106/1 72/107/1
f 130/108/5 125/109/5 73/110/5
f 76/111/5 130/108/5 75/112/5
f 75/112/5 130/108/5 73/110/5
f 152/113/5 76/111/5 75/112/5
f 78/114/2 127/115/2 77/116/2
f 152/113/5 130/108/5 76/111/5
f 152/113/5 75/112/5 113/103/5
f 79/117/2 61/86/2 80/118/2
f 83/119/2 79/117/2 80/118/2
f 84/120/2 79/117/2 83/119/2
f 85/121/2 70/122/2 64/123/2
f 84/120/2 83/119/2 90/124/2
f 92/125/3 89/126/3 88/127/3
f 92/128/1 88/129/1 80/130/1
f 91/131/1 85/132/1 86/133/1
f 91/134/2 90/124/2 92/135/2
f 86/136/2 84/120/2 90/124/2
f 92/135/2 71/85/2 78/114/2
f 156/137/2 91/134/2 92/135/2
f 99/138/2 95/27/2 98/28/2
f 99/138/2 17/33/2 95/27/2
f 3/139/6 96/140/6 134/141/6
f 3/142/2 107/143/2 106/144/2
f 105/145/2 103/146/2 108/147/2
f 103/148/1 101/149/1 99/150/1
f 18/151/2 2/6/2 27/11/2
f 111/152/6 96/140/6 3/139/6
f 45/153/6 111/152/6 23/154/6
f 116/155/2 97/156/2 105/145/2
f 116/157/6 107/158/6 115/159/6
f 116/155/2 105/145/2 109/160/2
f 117/161/5 114/162/5 96/102/5
f 118/163/5 117/161/5 96/102/5
f 119/164/5 96/102/5 114/162/5
f 31/32/2 17/33/2 97/156/2
f 97/156/2 17/33/2 99/138/2
f 50/165/1 46/166/1 49/167/1
f 46/168/6 96/140/6 111/152/6
f 122/169/2 49/170/2 46/171/2
f 122/172/6 44/173/6 47/174/6
f 122/172/6 46/168/6 44/173/6
f 42/175/6 44/173/6 111/152/6
f 44/173/6 46/168/6 111/152/6
f 1/176/6 96/140/6 46/168/6
f 50/177/2 40/178/2 1/179/2
f 77/116/2 127/115/2 126/180/2
f 129/181/4 126/182/4 57/183/4
f 152/113/5 132/184/5 130/108/5
f 74/185/2 33/52/2 147/186/2
f 131/187/6 138/188/6 141/189/6
f 143/190/4 131/191/4 141/192/4
f 146/193/2 115/194/2 3/142/2
f 148/195/2 74/185/2 147/186/2
f 116/155/2 148/195/2 147/186/2
f 150/196/2 149/197/2 129/198/2
f 151/199/2 140/200/2 126/180/2
f 129/198/2 53/201/2 115/194/2
f 94/202/2 150/196/2 146/193/2
f 143/203/2 141/204/2 139/205/2
f 124/206/5 135/207/5 128/208/5
f 134/209/5 119/164/5 142/210/5
f 154/211/6 150/212/6 153/213/6
f 123/104/5 128/208/5 118/163/5
f 132/184/5 135/207/5 124/206/5
f 156/137/2 78/114/2 155/214/2
f 159/215/2 158/216/2 160/217/2
f 91/134/2 156/137/2 161/218/2
f 93/219/2 163/220/2 153/221/2
f 164/222/2 91/134/2 161/218/2
f 157/223/2 131/224/2 133/225/2
f 133/225/2 144/226/2 154/227/2
f 127/115/2 62/228/2 126/180/2
f 52/229/2 29/230/2 30/231/2
f 137/232/2 120/233/2 121/234/2
f 23/72/1 22/235/1 37/73/1
f 10/22/2 11/9/2 8/8/2
f 8/236/4 5/237/4 6/238/4 10/239/4
f 7/240/6 12/241/6 16/242/6 11/243/6
f 7/244/1 11/245/1 95/246/1 14/247/1
f 95/27/2 11/9/2 9/23/2
f 16/248/4 12/249/4 15/250/4 17/251/4
f 95/252/3 17/19/3 14/21/3
f 29/253/1 25/254/1 32/255/1 30/256/1
f 2/31/4 98/30/4 9/257/4
f 4/258/3 27/82/3 113/36/3
f 113/36/3 19/35/3 4/258/3
f 20/34/3 21/259/3 19/35/3
f 20/34/3 22/260/3 21/259/3
f 110/39/2 4/261/2 19/40/2
f 22/262/5 23/42/5 21/44/5
f 21/47/1 112/46/1 19/263/1
f 16/7/2 26/48/2 8/8/2
f 8/12/3 26/264/3 13/13/3
f 13/10/2 28/78/2 27/11/2
f 56/265/3 51/266/3 55/267/3 72/268/3
f 33/52/2 36/94/2 32/50/2
f 20/34/3 38/269/3 37/270/3
f 20/34/3 39/57/3 38/269/3
f 20/34/3 49/54/3 39/57/3
f 39/64/1 42/63/1 38/271/1
f 45/272/2 37/59/2 42/61/2
f 122/68/1 47/273/1 41/69/1
f 41/65/5 47/274/5 44/66/5
f 40/53/3 48/275/3 49/54/3
f 50/165/1 49/167/1 48/276/1
f 13/10/2 51/84/2 28/78/2
f 27/82/3 152/81/3 113/36/3
f 59/277/2 58/83/2 57/77/2
f 13/278/1 26/279/1 55/280/1 51/281/1
f 72/107/1 53/106/1 56/282/1
f 59/283/3 57/284/3 62/285/3 63/286/3
f 61/287/4 58/288/4 59/289/4 63/290/4
f 28/78/2 58/83/2 64/123/2 70/122/2
f 28/80/3 70/291/3 152/81/3
f 54/292/4 52/293/4 66/294/4 36/295/4
f 68/87/2 61/86/2 63/296/2
f 71/297/6 68/91/6 65/93/6
f 127/115/2 68/87/2 62/228/2
f 60/298/1 68/299/1 127/300/1 67/301/1
f 69/302/3 67/303/3 127/304/3 78/305/3
f 69/95/4 78/306/4 71/96/4
f 68/87/2 63/296/2 62/228/2
f 69/98/2 65/307/2 60/99/2
f 81/308/6 87/309/6 83/310/6 80/311/6
f 61/88/3 79/312/3 64/89/3
f 57/183/4 126/182/4 62/313/4
f 113/103/5 73/110/5 35/101/5
f 123/104/5 73/110/5 124/206/5
f 35/101/5 73/110/5 123/104/5
f 74/185/2 72/74/2 36/94/2
f 113/103/5 75/112/5 73/110/5
f 80/118/2 61/86/2 71/85/2
f 64/314/1 79/315/1 84/316/1 82/317/1
f 81/318/2 88/319/2 89/320/2 87/321/2
f 83/322/4 87/323/4 89/324/4 90/325/4
f 80/130/1 88/129/1 81/326/1
f 85/327/3 82/328/3 84/329/3 86/330/3
f 92/125/3 90/331/3 89/126/3
f 82/332/2 85/121/2 64/123/2
f 85/121/2 93/219/2 94/202/2 70/122/2
f 91/134/2 86/136/2 90/124/2
f 92/135/2 80/118/2 71/85/2
f 97/333/4 104/334/4 102/335/4 105/336/4
f 91/131/1 93/337/1 85/132/1
f 3/142/2 18/151/2 27/11/2
f 102/338/2 100/339/2 101/340/2
f 103/146/2 99/138/2 98/28/2
f 102/338/2 104/341/2 100/339/2
f 99/150/1 101/149/1 100/342/1
f 100/343/6 104/344/6 97/345/6 99/346/6
f 18/347/6 106/348/6 108/349/6 98/350/6
f 108/147/2 103/146/2 98/28/2
f 109/160/2 105/145/2 108/147/2
f 108/351/4 106/352/4 107/353/4 109/354/4
f 102/355/3 101/356/3 103/357/3 105/358/3
f 120/359/1 34/360/1 31/361/1 121/362/1
f 3/142/2 106/144/2 18/151/2
f 112/363/6 111/152/6 3/139/6
f 110/364/6 112/363/6 3/139/6
f 24/365/6 111/152/6 112/363/6
f 23/154/6 111/152/6 24/365/6
f 3/142/2 115/194/2 107/143/2
f 116/157/6 109/366/6 107/158/6
f 117/161/5 119/164/5 114/162/5
f 33/367/4 136/368/4 137/369/4 147/370/4
f 116/155/2 31/32/2 97/156/2
f 116/155/2 147/186/2 31/32/2
f 122/169/2 43/371/2 49/170/2
f 45/153/6 42/175/6 111/152/6
f 50/177/2 48/372/2 40/178/2
f 50/373/6 1/176/6 46/168/6
f 6/374/3 2/375/3 9/376/3 10/377/3
f 129/198/2 57/77/2 56/79/2
f 124/206/5 128/208/5 123/104/5
f 96/102/5 123/104/5 118/163/5
f 129/198/2 56/79/2 53/201/2
f 74/185/2 36/94/2 33/52/2
f 130/108/5 132/184/5 125/109/5
f 125/109/5 132/184/5 124/206/5
f 131/224/2 78/114/2 77/116/2
f 152/113/5 142/210/5 132/184/5
f 137/232/2 136/378/2 120/233/2
f 128/208/5 135/207/5 119/164/5
f 128/208/5 119/164/5 118/163/5
f 140/200/2 77/116/2 126/180/2
f 118/163/5 119/164/5 117/161/5
f 138/379/1 77/380/1 140/381/1 139/382/1
f 145/383/6 53/384/6 74/385/6 148/386/6
f 132/184/5 142/210/5 135/207/5
f 146/387/6 3/139/6 134/141/6
f 115/194/2 53/201/2 145/388/2
f 146/193/2 150/196/2 129/198/2
f 151/199/2 154/227/2 140/200/2
f 146/193/2 129/198/2 115/194/2
f 145/389/1 148/390/1 116/391/1 115/392/1
f 129/393/6 149/394/6 151/395/6 126/396/6
f 151/397/4 149/398/4 150/399/4 154/400/4
f 143/401/3 139/402/3 140/403/3 144/404/3
f 119/164/5 134/209/5 96/102/5
f 94/405/6 146/387/6 134/141/6
f 154/227/2 144/226/2 140/200/2
f 158/406/6 159/407/6 156/408/6 155/409/6
f 139/205/2 141/204/2 138/410/2
f 143/190/4 144/411/4 131/191/4
f 135/207/5 142/210/5 119/164/5
f 131/187/6 77/412/6 138/188/6
f 152/113/5 134/209/5 142/210/5
f 94/202/2 153/221/2 150/196/2
f 157/223/2 155/214/2 78/114/2
f 156/137/2 92/135/2 78/114/2
f 70/413/1 134/414/1 152/415/1
f 133/416/6 154/211/6 153/213/6
f 158/417/1 155/418/1 157/419/1 160/420/1
f 156/421/4 159/422/4 162/423/4 161/424/4
f 162/425/3 160/426/3 157/427/3 161/428/3
f 133/225/2 161/218/2 157/223/2
f 133/225/2 164/222/2 161/218/2
f 163/429/1 164/430/1 133/431/1 153/432/1
f 163/433/6 93/434/6 91/435/6 164/436/6
f 94/437/1 134/414/1 70/413/1
f 162/438/2 159/215/2 160/217/2
f 94/202/2 93/219/2 153/221/2
f 29/439/6 52/440/6 54/441/6 25/442/6
f 157/223/2 78/114/2 131/224/2
f 133/225/2 131/224/2 144/226/2
f 73/110/5 125/109/5 124/206/5
f 54/76/2 26/48/2 25/49/2
f 66/443/3 30/444/3 32/445/3 36/446/3
f 66/447/2 52/229/2 30/231/2
f 120/448/6 136/449/6 33/450/6 34/451/6
f 137/452/3 121/453/3 31/454/3 147/455/3
f 20/34/3 37/270/3 22/260/3
